[gd_scene load_steps=2 format=2]

[sub_resource type="CubeMesh" id=1]
size = Vector3( 0.1, 0.1, 0.1 )

[node name="CloudTest" type="Spatial"]

[node name="CPUParticles" type="CPUParticles" parent="."]
amount = 20
lifetime = 20.0
randomness = 0.5
lifetime_randomness = 0.5
mesh = SubResource( 1 )
emission_shape = 2
emission_box_extents = Vector3( 0.5, 0.02, 0.25 )
gravity = Vector3( 0, 0, 0 )
initial_velocity = 0.02
initial_velocity_random = 1.0
scale_amount = 1.25
scale_amount_random = 1.0
hue_variation = 0.1
hue_variation_random = 0.1
