[gd_scene load_steps=5 format=2]

[ext_resource path="res://assets/controller.glb" type="PackedScene" id=1]
[ext_resource path="res://ControllerModel.gd" type="Script" id=2]

[sub_resource type="ArrayMesh" id=2]
resource_name = "Trigger"
surfaces/0 = {
"aabb": AABB( -0.00615488, -0.0365423, -0.0156951, 0.0123098, 0.0489814, 0.0236383 ),
"array_data": PoolByteArray( 214, 174, 201, 187, 11, 127, 82, 188, 231, 249, 1, 60, 129, 0, 0, 0, 0, 118, 212, 127, 0, 54, 0, 60, 214, 174, 201, 187, 149, 205, 75, 60, 103, 103, 51, 57, 129, 0, 0, 0, 0, 121, 219, 127, 0, 57, 0, 60, 214, 174, 201, 187, 149, 205, 75, 60, 24, 147, 128, 188, 129, 0, 0, 0, 0, 120, 215, 127, 0, 57, 0, 58, 214, 174, 201, 187, 165, 65, 22, 188, 227, 103, 206, 187, 129, 0, 0, 0, 0, 116, 206, 127, 0, 54, 0, 58, 214, 174, 201, 187, 165, 65, 22, 188, 227, 103, 206, 187, 0, 206, 140, 0, 0, 116, 206, 127, 0, 54, 0, 58, 214, 174, 201, 187, 149, 205, 75, 60, 24, 147, 128, 188, 0, 206, 140, 0, 0, 116, 206, 127, 0, 57, 0, 58, 214, 174, 201, 59, 149, 205, 75, 60, 24, 147, 128, 188, 0, 206, 140, 0, 0, 116, 206, 127, 0, 57, 0, 56, 214, 174, 201, 59, 165, 65, 22, 188, 227, 103, 206, 187, 0, 206, 140, 0, 0, 116, 206, 127, 0, 54, 0, 56, 214, 174, 201, 59, 165, 65, 22, 188, 227, 103, 206, 187, 127, 0, 0, 0, 0, 120, 215, 127, 0, 54, 0, 56, 214, 174, 201, 59, 149, 205, 75, 60, 24, 147, 128, 188, 127, 0, 0, 0, 0, 116, 206, 127, 0, 57, 0, 56, 214, 174, 201, 59, 149, 205, 75, 60, 103, 103, 51, 57, 127, 0, 0, 0, 0, 118, 210, 127, 0, 57, 0, 52, 214, 174, 201, 59, 11, 127, 82, 188, 231, 249, 1, 60, 127, 0, 0, 0, 0, 121, 219, 127, 0, 54, 0, 52, 214, 174, 201, 59, 11, 127, 82, 188, 231, 249, 1, 60, 0, 37, 121, 0, 0, 121, 219, 127, 0, 54, 0, 52, 214, 174, 201, 59, 149, 205, 75, 60, 103, 103, 51, 57, 0, 37, 121, 0, 0, 121, 219, 127, 0, 57, 0, 52, 214, 174, 201, 187, 149, 205, 75, 60, 103, 103, 51, 57, 0, 37, 121, 0, 0, 121, 219, 127, 0, 57, 0, 0, 214, 174, 201, 187, 11, 127, 82, 188, 231, 249, 1, 60, 0, 37, 121, 0, 0, 121, 219, 127, 0, 54, 0, 0, 214, 174, 201, 187, 165, 65, 22, 188, 227, 103, 206, 187, 0, 2, 130, 0, 127, 0, 0, 127, 0, 54, 0, 58, 214, 174, 201, 59, 165, 65, 22, 188, 227, 103, 206, 187, 0, 2, 130, 0, 127, 0, 0, 127, 0, 54, 0, 56, 214, 174, 201, 59, 213, 8, 219, 188, 223, 202, 219, 187, 0, 2, 130, 0, 127, 0, 0, 127, 0, 54, 0, 56, 214, 174, 201, 187, 213, 8, 219, 188, 223, 202, 219, 187, 0, 2, 130, 0, 127, 0, 0, 127, 0, 54, 0, 58, 214, 174, 201, 59, 149, 205, 75, 60, 24, 147, 128, 188, 0, 127, 0, 0, 130, 0, 0, 127, 0, 57, 0, 56, 214, 174, 201, 187, 149, 205, 75, 60, 24, 147, 128, 188, 0, 127, 0, 0, 129, 0, 0, 127, 0, 59, 0, 56, 214, 174, 201, 187, 149, 205, 75, 60, 103, 103, 51, 57, 0, 127, 0, 0, 130, 0, 0, 127, 0, 59, 0, 52, 214, 174, 201, 59, 149, 205, 75, 60, 103, 103, 51, 57, 0, 127, 0, 0, 129, 0, 0, 127, 0, 57, 0, 52, 214, 174, 201, 59, 71, 128, 252, 188, 13, 44, 124, 59, 0, 164, 86, 0, 127, 0, 0, 129, 0, 54, 0, 52, 214, 174, 201, 187, 71, 128, 252, 188, 13, 44, 124, 59, 0, 164, 86, 0, 127, 0, 0, 129, 0, 54, 0, 0, 214, 174, 201, 187, 90, 173, 21, 189, 70, 109, 21, 187, 0, 164, 86, 0, 127, 0, 0, 129, 0, 54, 0, 0, 214, 174, 201, 59, 90, 173, 21, 189, 70, 109, 21, 187, 0, 164, 86, 0, 127, 0, 0, 129, 0, 54, 0, 52, 214, 174, 201, 187, 11, 127, 82, 188, 231, 249, 1, 60, 129, 0, 0, 0, 127, 0, 0, 127, 0, 54, 0, 60, 214, 174, 201, 187, 165, 65, 22, 188, 227, 103, 206, 187, 129, 0, 0, 0, 127, 0, 0, 127, 0, 54, 0, 58, 214, 174, 201, 187, 213, 8, 219, 188, 223, 202, 219, 187, 129, 0, 0, 0, 127, 0, 0, 127, 0, 54, 0, 58, 214, 174, 201, 187, 71, 128, 252, 188, 13, 44, 124, 59, 129, 0, 0, 0, 127, 0, 0, 127, 0, 54, 0, 60, 214, 174, 201, 59, 165, 65, 22, 188, 227, 103, 206, 187, 126, 0, 0, 0, 127, 0, 0, 127, 0, 54, 0, 56, 214, 174, 201, 59, 11, 127, 82, 188, 231, 249, 1, 60, 126, 0, 0, 0, 127, 0, 0, 127, 0, 54, 0, 52, 214, 174, 201, 59, 71, 128, 252, 188, 13, 44, 124, 59, 126, 0, 0, 0, 127, 0, 0, 127, 0, 54, 0, 52, 214, 174, 201, 59, 213, 8, 219, 188, 223, 202, 219, 187, 126, 0, 0, 0, 127, 0, 0, 127, 0, 54, 0, 56, 214, 174, 201, 59, 11, 127, 82, 188, 231, 249, 1, 60, 0, 228, 123, 0, 127, 0, 0, 129, 0, 54, 0, 52, 214, 174, 201, 187, 11, 127, 82, 188, 231, 249, 1, 60, 0, 228, 123, 0, 127, 0, 0, 129, 0, 54, 0, 0, 214, 174, 201, 187, 71, 128, 252, 188, 13, 44, 124, 59, 0, 228, 123, 0, 127, 0, 0, 129, 0, 54, 0, 0, 214, 174, 201, 59, 71, 128, 252, 188, 13, 44, 124, 59, 0, 228, 123, 0, 127, 0, 0, 129, 0, 54, 0, 52, 214, 174, 201, 187, 30, 163, 11, 189, 189, 174, 95, 188, 0, 132, 230, 0, 127, 0, 0, 127, 0, 48, 0, 56, 214, 174, 201, 59, 30, 163, 11, 189, 189, 174, 95, 188, 0, 132, 230, 0, 127, 0, 0, 127, 0, 54, 0, 56, 214, 174, 201, 59, 90, 173, 21, 189, 70, 109, 21, 187, 0, 132, 230, 0, 127, 0, 0, 127, 0, 54, 0, 52, 214, 174, 201, 187, 90, 173, 21, 189, 70, 109, 21, 187, 0, 132, 230, 0, 127, 0, 0, 127, 0, 48, 0, 52, 214, 174, 201, 187, 213, 8, 219, 188, 223, 202, 219, 187, 0, 87, 164, 0, 127, 0, 0, 127, 0, 54, 0, 58, 214, 174, 201, 59, 213, 8, 219, 188, 223, 202, 219, 187, 0, 87, 164, 0, 127, 0, 0, 127, 0, 54, 0, 56, 214, 174, 201, 59, 30, 163, 11, 189, 189, 174, 95, 188, 0, 87, 164, 0, 127, 0, 0, 127, 0, 54, 0, 56, 214, 174, 201, 187, 30, 163, 11, 189, 189, 174, 95, 188, 0, 87, 164, 0, 127, 0, 0, 127, 0, 54, 0, 58, 214, 174, 201, 59, 213, 8, 219, 188, 223, 202, 219, 187, 127, 0, 0, 0, 127, 0, 0, 129, 0, 54, 0, 56, 214, 174, 201, 59, 71, 128, 252, 188, 13, 44, 124, 59, 127, 0, 0, 0, 127, 0, 0, 129, 0, 54, 0, 52, 214, 174, 201, 59, 90, 173, 21, 189, 70, 109, 21, 187, 127, 0, 0, 0, 127, 0, 0, 129, 0, 54, 0, 52, 214, 174, 201, 59, 30, 163, 11, 189, 189, 174, 95, 188, 127, 0, 0, 0, 127, 0, 0, 129, 0, 54, 0, 56, 214, 174, 201, 187, 71, 128, 252, 188, 13, 44, 124, 59, 129, 0, 0, 0, 127, 0, 0, 127, 0, 54, 0, 60, 214, 174, 201, 187, 213, 8, 219, 188, 223, 202, 219, 187, 129, 0, 0, 0, 127, 0, 0, 127, 0, 54, 0, 58, 214, 174, 201, 187, 30, 163, 11, 189, 189, 174, 95, 188, 129, 0, 0, 0, 127, 0, 0, 127, 0, 54, 0, 58, 214, 174, 201, 187, 90, 173, 21, 189, 70, 109, 21, 187, 129, 0, 0, 0, 127, 0, 0, 127, 0, 54, 0, 60 ),
"array_index_data": PoolByteArray( 0, 0, 2, 0, 1, 0, 0, 0, 3, 0, 2, 0, 4, 0, 6, 0, 5, 0, 4, 0, 7, 0, 6, 0, 8, 0, 10, 0, 9, 0, 8, 0, 11, 0, 10, 0, 12, 0, 14, 0, 13, 0, 12, 0, 15, 0, 14, 0, 16, 0, 18, 0, 17, 0, 16, 0, 19, 0, 18, 0, 20, 0, 22, 0, 21, 0, 20, 0, 23, 0, 22, 0, 24, 0, 26, 0, 25, 0, 24, 0, 27, 0, 26, 0, 28, 0, 30, 0, 29, 0, 28, 0, 31, 0, 30, 0, 32, 0, 34, 0, 33, 0, 32, 0, 35, 0, 34, 0, 36, 0, 38, 0, 37, 0, 36, 0, 39, 0, 38, 0, 40, 0, 42, 0, 41, 0, 40, 0, 43, 0, 42, 0, 44, 0, 46, 0, 45, 0, 44, 0, 47, 0, 46, 0, 48, 0, 50, 0, 49, 0, 48, 0, 51, 0, 50, 0, 52, 0, 54, 0, 53, 0, 52, 0, 55, 0, 54, 0 ),
"blend_shape_data": [  ],
"format": 97559,
"index_count": 84,
"primitive": 4,
"skeleton_aabb": [  ],
"vertex_count": 56
}

[sub_resource type="Animation" id=3]
resource_name = "PullTrigger"
length = 0.1
tracks/0/type = "value"
tracks/0/path = NodePath("TriggerPivot:rotation_degrees")
tracks/0/interp = 1
tracks/0/loop_wrap = true
tracks/0/imported = false
tracks/0/enabled = true
tracks/0/keys = {
"times": PoolRealArray( 0, 0.1 ),
"transitions": PoolRealArray( 1, 1 ),
"update": 0,
"values": [ Vector3( 0, 0, 0 ), Vector3( -15, 0, 0 ) ]
}

[node name="ControllerModel" instance=ExtResource( 1 )]
script = ExtResource( 2 )

[node name="TriggerPivot" type="Position3D" parent="." index="1"]
transform = Transform( 1, 0, 0, 0, 1, 0, 0, 0, 1, 0, 0.0481213, -0.0674864 )

[node name="Trigger" type="MeshInstance" parent="TriggerPivot" index="0"]
transform = Transform( 1, 0, 0, 0, 1, 0, 0, 0, 1, 0, -0.0193522, 0.00801713 )
mesh = SubResource( 2 )
material/0 = null

[node name="AnimationPlayer" type="AnimationPlayer" parent="." index="2"]
anims/PullTrigger = SubResource( 3 )

[node name="Trigger" parent="." index="3"]
visible = false
