[gd_scene load_steps=6 format=2]

[ext_resource path="res://RaceCarWhite.tscn" type="PackedScene" id=1]
[ext_resource path="res://assets/cars/glass.material" type="Material" id=2]
[ext_resource path="res://assets/cars/carTire.material" type="Material" id=3]
[ext_resource path="res://assets/cars/black.material" type="Material" id=4]

[sub_resource type="ArrayMesh" id=1]
resource_name = "Body"
surfaces/0 = {
"aabb": AABB( 0.011, 2.93277e-17, -0.269187, 0.101, 0.0642992, 0.269187 ),
"array_data": PoolByteArray( 190, 116, 19, 61, 203, 188, 65, 61, 151, 241, 190, 189, 151, 0, 71, 0, 71, 0, 105, 127, 154, 201, 39, 200, 94, 143, 66, 61, 39, 93, 161, 59, 64, 57, 156, 189, 151, 0, 71, 0, 71, 0, 105, 127, 45, 199, 214, 39, 94, 143, 66, 61, 203, 188, 65, 61, 64, 57, 156, 189, 151, 0, 71, 0, 71, 0, 105, 127, 45, 199, 39, 200, 94, 143, 66, 61, 39, 93, 161, 59, 64, 57, 156, 189, 151, 0, 71, 0, 71, 0, 105, 127, 45, 199, 214, 39, 190, 116, 19, 61, 203, 188, 65, 61, 151, 241, 190, 189, 151, 0, 71, 0, 71, 0, 105, 127, 154, 201, 39, 200, 190, 116, 19, 61, 39, 93, 161, 59, 151, 241, 190, 189, 151, 0, 71, 0, 71, 0, 105, 127, 154, 201, 214, 39, 97, 186, 201, 61, 39, 93, 161, 59, 239, 210, 137, 190, 126, 0, 0, 0, 0, 0, 129, 127, 159, 82, 214, 39, 97, 186, 201, 61, 138, 162, 223, 60, 254, 42, 127, 190, 126, 0, 0, 0, 0, 0, 129, 127, 33, 82, 95, 196, 97, 186, 201, 61, 39, 93, 161, 59, 254, 42, 127, 190, 126, 0, 0, 0, 0, 0, 129, 127, 33, 82, 214, 39, 97, 186, 201, 61, 138, 162, 223, 60, 254, 42, 127, 190, 127, 0, 0, 0, 0, 0, 129, 127, 33, 82, 95, 196, 97, 186, 201, 61, 39, 93, 161, 59, 239, 210, 137, 190, 127, 0, 0, 0, 0, 0, 129, 127, 159, 82, 214, 39, 97, 186, 201, 61, 63, 80, 90, 61, 254, 42, 127, 190, 127, 0, 0, 0, 0, 0, 129, 127, 33, 82, 190, 200, 97, 186, 201, 61, 63, 80, 90, 61, 254, 42, 127, 190, 127, 0, 0, 0, 0, 0, 129, 127, 33, 82, 190, 200, 97, 186, 201, 61, 39, 93, 161, 59, 239, 210, 137, 190, 127, 0, 0, 0, 0, 0, 129, 127, 159, 82, 214, 39, 97, 186, 201, 61, 33, 203, 110, 61, 239, 210, 137, 190, 127, 0, 0, 0, 0, 0, 129, 127, 159, 82, 60, 201, 19, 88, 185, 61, 33, 203, 110, 61, 239, 210, 137, 190, 129, 0, 0, 0, 0, 0, 127, 127, 159, 210, 60, 201, 19, 88, 185, 61, 138, 162, 223, 60, 254, 42, 127, 190, 129, 0, 0, 0, 0, 0, 127, 127, 33, 210, 95, 196, 19, 88, 185, 61, 63, 80, 90, 61, 254, 42, 127, 190, 129, 0, 0, 0, 0, 0, 126, 127, 33, 210, 190, 200, 19, 88, 185, 61, 138, 162, 223, 60, 254, 42, 127, 190, 129, 0, 0, 0, 0, 0, 127, 127, 33, 210, 95, 196, 19, 88, 185, 61, 33, 203, 110, 61, 239, 210, 137, 190, 129, 0, 0, 0, 0, 0, 127, 127, 159, 210, 60, 201, 19, 88, 185, 61, 39, 93, 161, 59, 254, 42, 127, 190, 129, 0, 0, 0, 0, 0, 127, 127, 33, 210, 214, 39, 19, 88, 185, 61, 39, 93, 161, 59, 239, 210, 137, 190, 129, 0, 0, 0, 0, 0, 127, 127, 159, 210, 214, 39, 13, 215, 163, 60, 204, 55, 18, 60, 0, 0, 0, 128, 0, 127, 0, 0, 127, 0, 0, 127, 223, 67, 0, 60, 94, 143, 66, 61, 204, 55, 18, 60, 13, 215, 35, 188, 0, 127, 0, 0, 127, 0, 0, 127, 172, 72, 191, 187, 13, 215, 163, 60, 204, 55, 18, 60, 10, 134, 234, 188, 0, 127, 0, 0, 127, 0, 0, 127, 223, 67, 162, 196, 94, 143, 66, 61, 204, 55, 18, 60, 13, 215, 35, 188, 0, 127, 0, 0, 127, 0, 0, 127, 172, 72, 191, 187, 13, 215, 163, 60, 204, 55, 18, 60, 0, 0, 0, 128, 0, 127, 0, 0, 127, 0, 0, 127, 223, 67, 0, 60, 173, 241, 210, 61, 204, 55, 18, 60, 35, 118, 166, 165, 0, 127, 0, 0, 127, 0, 0, 127, 17, 77, 0, 60, 94, 143, 66, 61, 204, 55, 18, 60, 13, 215, 35, 188, 0, 127, 0, 0, 127, 0, 0, 127, 172, 72, 191, 187, 173, 241, 210, 61, 204, 55, 18, 60, 35, 118, 166, 165, 0, 127, 0, 0, 127, 0, 0, 127, 17, 77, 0, 60, 193, 159, 154, 61, 204, 55, 18, 60, 13, 215, 35, 188, 0, 127, 0, 0, 127, 0, 0, 127, 110, 75, 191, 187, 193, 159, 154, 61, 204, 55, 18, 60, 13, 215, 35, 188, 0, 127, 0, 0, 127, 0, 0, 127, 110, 75, 191, 187, 173, 241, 210, 61, 204, 55, 18, 60, 35, 118, 166, 165, 0, 127, 0, 0, 126, 0, 0, 127, 17, 77, 0, 60, 193, 159, 154, 61, 204, 55, 18, 60, 10, 134, 234, 188, 0, 127, 0, 0, 127, 0, 0, 127, 110, 75, 162, 196, 193, 159, 154, 61, 204, 55, 18, 60, 10, 134, 234, 188, 0, 127, 0, 0, 127, 0, 0, 127, 110, 75, 162, 196, 173, 241, 210, 61, 204, 55, 18, 60, 10, 134, 234, 188, 0, 127, 0, 0, 127, 0, 0, 127, 17, 77, 162, 196, 94, 143, 66, 61, 204, 55, 18, 60, 10, 134, 234, 188, 0, 127, 0, 0, 127, 0, 0, 127, 172, 72, 162, 196, 13, 215, 163, 60, 204, 55, 18, 60, 10, 134, 234, 188, 0, 127, 0, 0, 127, 0, 0, 127, 223, 67, 162, 196, 19, 88, 185, 61, 39, 93, 161, 59, 239, 210, 137, 190, 0, 0, 129, 0, 129, 0, 0, 127, 116, 204, 214, 39, 97, 186, 201, 61, 33, 203, 110, 61, 239, 210, 137, 190, 0, 0, 129, 0, 129, 0, 0, 127, 216, 204, 60, 201, 97, 186, 201, 61, 39, 93, 161, 59, 239, 210, 137, 190, 0, 0, 129, 0, 129, 0, 0, 127, 216, 204, 214, 39, 19, 88, 185, 61, 33, 203, 110, 61, 239, 210, 137, 190, 0, 0, 129, 0, 129, 0, 0, 127, 116, 204, 60, 201, 186, 30, 5, 61, 33, 203, 110, 61, 239, 210, 137, 190, 0, 0, 127, 0, 127, 0, 0, 129, 101, 198, 60, 201, 97, 186, 201, 61, 33, 203, 110, 61, 239, 210, 137, 190, 0, 0, 127, 0, 127, 0, 0, 129, 216, 204, 60, 201, 19, 88, 185, 61, 33, 203, 110, 61, 239, 210, 137, 190, 0, 0, 127, 0, 127, 0, 0, 129, 116, 204, 60, 201, 27, 4, 214, 61, 76, 175, 131, 61, 239, 210, 137, 190, 0, 0, 129, 0, 129, 0, 0, 127, 36, 205, 212, 201, 186, 30, 5, 61, 33, 203, 110, 61, 239, 210, 137, 190, 0, 0, 129, 0, 129, 0, 0, 127, 101, 198, 60, 201, 82, 141, 151, 60, 76, 175, 131, 61, 239, 210, 137, 190, 0, 0, 129, 0, 129, 0, 0, 127, 72, 195, 212, 201, 60, 180, 200, 60, 183, 244, 109, 61, 239, 210, 137, 190, 0, 0, 130, 0, 129, 0, 0, 127, 210, 196, 55, 201, 82, 141, 151, 60, 76, 175, 131, 61, 239, 210, 137, 190, 0, 0, 130, 0, 129, 0, 0, 127, 72, 195, 212, 201, 186, 30, 5, 61, 33, 203, 110, 61, 239, 210, 137, 190, 0, 0, 130, 0, 129, 0, 0, 127, 101, 198, 60, 201, 60, 180, 200, 60, 183, 244, 109, 61, 239, 210, 137, 190, 0, 0, 129, 0, 130, 0, 0, 127, 210, 196, 55, 201, 82, 141, 151, 60, 183, 244, 109, 61, 239, 210, 137, 190, 0, 0, 129, 0, 129, 0, 0, 127, 72, 195, 55, 201, 27, 4, 214, 61, 33, 203, 110, 61, 239, 210, 137, 190, 0, 0, 129, 0, 129, 0, 0, 127, 36, 205, 60, 201, 60, 180, 200, 60, 39, 93, 161, 59, 239, 210, 137, 190, 0, 0, 129, 0, 129, 0, 0, 127, 210, 196, 214, 39, 186, 30, 5, 61, 39, 93, 161, 59, 239, 210, 137, 190, 0, 0, 129, 0, 129, 0, 0, 127, 101, 198, 214, 39, 27, 4, 214, 61, 181, 227, 114, 61, 254, 42, 127, 190, 0, 0, 127, 0, 127, 0, 0, 127, 36, 77, 86, 201, 97, 186, 201, 61, 63, 80, 90, 61, 254, 42, 127, 190, 0, 0, 127, 0, 126, 0, 0, 127, 216, 76, 190, 200, 27, 4, 214, 61, 63, 80, 90, 61, 254, 42, 127, 190, 0, 0, 127, 0, 127, 0, 0, 127, 36, 77, 190, 200, 97, 186, 201, 61, 63, 80, 90, 61, 254, 42, 127, 190, 0, 0, 126, 0, 127, 0, 0, 127, 216, 76, 190, 200, 27, 4, 214, 61, 181, 227, 114, 61, 254, 42, 127, 190, 0, 0, 126, 0, 127, 0, 0, 127, 36, 77, 86, 201, 186, 30, 5, 61, 63, 80, 90, 61, 254, 42, 127, 190, 0, 0, 126, 0, 127, 0, 0, 127, 101, 70, 190, 200, 186, 30, 5, 61, 63, 80, 90, 61, 254, 42, 127, 190, 0, 0, 127, 0, 127, 0, 0, 127, 101, 70, 190, 200, 60, 180, 200, 60, 63, 80, 90, 61, 254, 42, 127, 190, 0, 0, 127, 0, 127, 0, 0, 127, 210, 68, 190, 200, 60, 180, 200, 60, 63, 80, 90, 61, 254, 42, 127, 190, 0, 0, 127, 0, 127, 0, 0, 127, 210, 68, 190, 200, 27, 4, 214, 61, 181, 227, 114, 61, 254, 42, 127, 190, 0, 0, 127, 0, 127, 0, 0, 127, 36, 77, 86, 201, 82, 141, 151, 60, 63, 80, 90, 61, 254, 42, 127, 190, 0, 0, 127, 0, 127, 0, 0, 127, 72, 67, 190, 200, 82, 141, 151, 60, 63, 80, 90, 61, 254, 42, 127, 190, 0, 0, 127, 0, 127, 0, 0, 127, 72, 67, 190, 200, 82, 141, 151, 60, 181, 227, 114, 61, 254, 42, 127, 190, 0, 0, 127, 0, 127, 0, 0, 127, 72, 67, 86, 201, 60, 180, 200, 60, 138, 162, 223, 60, 254, 42, 127, 190, 0, 0, 127, 0, 126, 0, 0, 127, 210, 68, 95, 196, 186, 30, 5, 61, 138, 162, 223, 60, 254, 42, 127, 190, 0, 0, 127, 0, 127, 0, 0, 127, 101, 70, 95, 196, 19, 88, 185, 61, 63, 80, 90, 61, 254, 42, 127, 190, 0, 0, 127, 0, 127, 0, 0, 129, 116, 76, 190, 200, 97, 186, 201, 61, 63, 80, 90, 61, 254, 42, 127, 190, 0, 0, 127, 0, 127, 0, 0, 129, 216, 76, 190, 200, 186, 30, 5, 61, 63, 80, 90, 61, 254, 42, 127, 190, 0, 0, 127, 0, 127, 0, 0, 129, 101, 70, 190, 200, 19, 88, 185, 61, 138, 162, 223, 60, 254, 42, 127, 190, 0, 0, 127, 0, 126, 0, 0, 127, 116, 76, 95, 196, 19, 88, 185, 61, 63, 80, 90, 61, 254, 42, 127, 190, 0, 0, 127, 0, 127, 0, 0, 127, 116, 76, 190, 200, 97, 186, 201, 61, 138, 162, 223, 60, 254, 42, 127, 190, 0, 0, 127, 0, 127, 0, 0, 127, 216, 76, 95, 196, 186, 30, 5, 61, 39, 93, 161, 59, 239, 210, 137, 190, 126, 0, 0, 0, 0, 0, 129, 127, 159, 82, 214, 39, 186, 30, 5, 61, 138, 162, 223, 60, 254, 42, 127, 190, 126, 0, 0, 0, 0, 0, 129, 127, 33, 82, 95, 196, 186, 30, 5, 61, 39, 93, 161, 59, 254, 42, 127, 190, 126, 0, 0, 0, 0, 0, 129, 127, 33, 82, 214, 39, 186, 30, 5, 61, 138, 162, 223, 60, 254, 42, 127, 190, 127, 0, 0, 0, 0, 0, 129, 127, 33, 82, 95, 196, 186, 30, 5, 61, 39, 93, 161, 59, 239, 210, 137, 190, 127, 0, 0, 0, 0, 0, 129, 127, 159, 82, 214, 39, 186, 30, 5, 61, 63, 80, 90, 61, 254, 42, 127, 190, 127, 0, 0, 0, 0, 0, 129, 127, 33, 82, 190, 200, 186, 30, 5, 61, 63, 80, 90, 61, 254, 42, 127, 190, 127, 0, 0, 0, 0, 0, 129, 127, 33, 82, 190, 200, 186, 30, 5, 61, 39, 93, 161, 59, 239, 210, 137, 190, 127, 0, 0, 0, 0, 0, 129, 127, 159, 82, 214, 39, 186, 30, 5, 61, 33, 203, 110, 61, 239, 210, 137, 190, 127, 0, 0, 0, 0, 0, 129, 127, 159, 82, 60, 201, 27, 4, 214, 61, 181, 227, 114, 61, 254, 42, 127, 190, 0, 123, 30, 0, 127, 0, 0, 127, 36, 77, 45, 210, 82, 141, 151, 60, 76, 175, 131, 61, 239, 210, 137, 190, 0, 123, 30, 0, 127, 0, 0, 127, 72, 67, 175, 210, 82, 141, 151, 60, 181, 227, 114, 61, 254, 42, 127, 190, 0, 123, 30, 0, 127, 0, 0, 127, 72, 67, 45, 210, 82, 141, 151, 60, 76, 175, 131, 61, 239, 210, 137, 190, 0, 123, 30, 0, 127, 0, 0, 127, 72, 67, 175, 210, 27, 4, 214, 61, 181, 227, 114, 61, 254, 42, 127, 190, 0, 123, 30, 0, 127, 0, 0, 127, 36, 77, 45, 210, 27, 4, 214, 61, 76, 175, 131, 61, 239, 210, 137, 190, 0, 123, 30, 0, 127, 0, 0, 127, 36, 77, 175, 210, 60, 180, 200, 60, 63, 80, 90, 61, 254, 42, 127, 190, 129, 0, 0, 0, 127, 0, 0, 127, 33, 210, 190, 200, 60, 180, 200, 60, 39, 93, 161, 59, 254, 42, 127, 190, 129, 0, 0, 0, 127, 0, 0, 127, 33, 210, 214, 39, 60, 180, 200, 60, 138, 162, 223, 60, 254, 42, 127, 190, 129, 0, 0, 0, 127, 0, 0, 127, 33, 210, 95, 196, 60, 180, 200, 60, 39, 93, 161, 59, 254, 42, 127, 190, 129, 0, 0, 0, 0, 0, 127, 127, 33, 210, 214, 39, 60, 180, 200, 60, 63, 80, 90, 61, 254, 42, 127, 190, 129, 0, 0, 0, 0, 0, 127, 127, 33, 210, 190, 200, 60, 180, 200, 60, 39, 93, 161, 59, 239, 210, 137, 190, 129, 0, 0, 0, 0, 0, 127, 127, 159, 210, 214, 39, 60, 180, 200, 60, 183, 244, 109, 61, 239, 210, 137, 190, 129, 0, 0, 0, 0, 0, 127, 127, 159, 210, 55, 201, 225, 79, 13, 61, 24, 31, 82, 61, 239, 169, 225, 189, 0, 0, 127, 0, 127, 0, 0, 127, 202, 70, 140, 200, 60, 180, 200, 60, 203, 188, 65, 61, 239, 169, 225, 189, 0, 0, 127, 0, 127, 0, 0, 127, 210, 68, 39, 200, 225, 79, 13, 61, 203, 188, 65, 61, 239, 169, 225, 189, 0, 0, 127, 0, 127, 0, 0, 127, 202, 70, 39, 200, 90, 57, 52, 60, 24, 31, 82, 61, 239, 169, 225, 189, 0, 0, 126, 0, 127, 0, 0, 127, 84, 64, 140, 200, 60, 180, 200, 60, 203, 188, 65, 61, 239, 169, 225, 189, 0, 0, 126, 0, 127, 0, 0, 127, 210, 68, 39, 200, 225, 79, 13, 61, 24, 31, 82, 61, 239, 169, 225, 189, 0, 0, 126, 0, 127, 0, 0, 127, 202, 70, 140, 200, 90, 57, 52, 60, 225, 149, 16, 61, 239, 169, 225, 189, 0, 0, 127, 0, 126, 0, 0, 127, 84, 64, 242, 197, 90, 57, 52, 60, 24, 31, 82, 61, 239, 169, 225, 189, 0, 0, 127, 0, 127, 0, 0, 127, 84, 64, 140, 200, 60, 180, 200, 60, 225, 149, 16, 61, 239, 169, 225, 189, 0, 0, 127, 0, 127, 0, 0, 127, 210, 68, 242, 197, 60, 180, 200, 60, 225, 149, 16, 61, 60, 12, 242, 189, 0, 130, 0, 0, 129, 0, 0, 127, 210, 196, 144, 205, 90, 57, 52, 60, 225, 149, 16, 61, 239, 169, 225, 189, 0, 130, 0, 0, 129, 0, 0, 127, 84, 192, 44, 205, 90, 57, 52, 60, 225, 149, 16, 61, 60, 12, 242, 189, 0, 130, 0, 0, 129, 0, 0, 127, 84, 192, 144, 205, 90, 57, 52, 60, 225, 149, 16, 61, 239, 169, 225, 189, 0, 129, 0, 0, 129, 0, 0, 127, 84, 192, 44, 205, 60, 180, 200, 60, 225, 149, 16, 61, 60, 12, 242, 189, 0, 129, 0, 0, 129, 0, 0, 127, 210, 196, 144, 205, 60, 180, 200, 60, 225, 149, 16, 61, 239, 169, 225, 189, 0, 129, 0, 0, 129, 0, 0, 127, 210, 196, 44, 205, 136, 235, 209, 61, 204, 55, 18, 60, 219, 86, 146, 189, 127, 0, 0, 0, 0, 0, 129, 127, 8, 75, 13, 186, 136, 235, 209, 61, 108, 7, 155, 60, 242, 183, 123, 189, 127, 0, 0, 0, 0, 0, 129, 127, 12, 74, 115, 193, 136, 235, 209, 61, 204, 55, 18, 60, 242, 183, 123, 189, 127, 0, 0, 0, 0, 0, 129, 127, 12, 74, 13, 186, 136, 235, 209, 61, 108, 7, 155, 60, 219, 86, 146, 189, 127, 0, 0, 0, 0, 0, 129, 127, 8, 75, 115, 193, 193, 159, 154, 61, 108, 7, 155, 60, 219, 86, 146, 189, 0, 0, 129, 0, 129, 0, 0, 127, 110, 203, 115, 193, 136, 235, 209, 61, 204, 55, 18, 60, 219, 86, 146, 189, 0, 0, 129, 0, 129, 0, 0, 127, 11, 205, 13, 186, 193, 159, 154, 61, 204, 55, 18, 60, 219, 86, 146, 189, 0, 0, 129, 0, 129, 0, 0, 127, 110, 203, 13, 186, 136, 235, 209, 61, 108, 7, 155, 60, 219, 86, 146, 189, 0, 0, 129, 0, 129, 0, 0, 127, 11, 205, 115, 193, 136, 235, 209, 61, 108, 7, 155, 60, 242, 183, 123, 189, 0, 127, 0, 0, 127, 0, 0, 127, 11, 77, 140, 201, 193, 159, 154, 61, 108, 7, 155, 60, 219, 86, 146, 189, 0, 127, 0, 0, 127, 0, 0, 127, 110, 75, 136, 202, 193, 159, 154, 61, 108, 7, 155, 60, 242, 183, 123, 189, 0, 127, 0, 0, 127, 0, 0, 127, 110, 75, 140, 201, 136, 235, 209, 61, 108, 7, 155, 60, 219, 86, 146, 189, 0, 127, 0, 0, 127, 0, 0, 127, 11, 77, 136, 202, 136, 235, 209, 61, 108, 7, 155, 60, 242, 183, 123, 189, 0, 0, 127, 0, 127, 0, 0, 127, 11, 77, 115, 193, 193, 159, 154, 61, 204, 55, 18, 60, 242, 183, 123, 189, 0, 0, 127, 0, 127, 0, 0, 127, 110, 75, 13, 186, 136, 235, 209, 61, 204, 55, 18, 60, 242, 183, 123, 189, 0, 0, 127, 0, 127, 0, 0, 127, 11, 77, 13, 186, 193, 159, 154, 61, 108, 7, 155, 60, 242, 183, 123, 189, 0, 0, 127, 0, 127, 0, 0, 127, 110, 75, 115, 193, 161, 239, 167, 60, 108, 7, 155, 60, 219, 86, 146, 189, 129, 0, 0, 0, 0, 0, 127, 127, 8, 203, 115, 193, 161, 239, 167, 60, 204, 55, 18, 60, 242, 183, 123, 189, 129, 0, 0, 0, 0, 0, 127, 127, 12, 202, 13, 186, 161, 239, 167, 60, 108, 7, 155, 60, 242, 183, 123, 189, 129, 0, 0, 0, 0, 0, 127, 127, 12, 202, 115, 193, 161, 239, 167, 60, 204, 55, 18, 60, 219, 86, 146, 189, 129, 0, 0, 0, 0, 0, 127, 127, 8, 203, 13, 186, 94, 143, 66, 61, 108, 7, 155, 60, 242, 183, 123, 189, 0, 0, 127, 0, 126, 0, 0, 127, 172, 72, 115, 193, 161, 239, 167, 60, 204, 55, 18, 60, 242, 183, 123, 189, 0, 0, 127, 0, 126, 0, 0, 127, 9, 68, 13, 186, 94, 143, 66, 61, 204, 55, 18, 60, 242, 183, 123, 189, 0, 0, 127, 0, 127, 0, 0, 127, 172, 72, 13, 186, 161, 239, 167, 60, 108, 7, 155, 60, 242, 183, 123, 189, 0, 0, 127, 0, 127, 0, 0, 127, 9, 68, 115, 193, 94, 143, 66, 61, 108, 7, 155, 60, 242, 183, 123, 189, 0, 127, 0, 0, 127, 0, 0, 127, 172, 72, 140, 201, 161, 239, 167, 60, 108, 7, 155, 60, 219, 86, 146, 189, 0, 127, 0, 0, 127, 0, 0, 127, 9, 68, 136, 202, 161, 239, 167, 60, 108, 7, 155, 60, 242, 183, 123, 189, 0, 127, 0, 0, 127, 0, 0, 127, 9, 68, 140, 201, 94, 143, 66, 61, 108, 7, 155, 60, 219, 86, 146, 189, 0, 127, 0, 0, 127, 0, 0, 127, 172, 72, 136, 202, 161, 239, 167, 60, 108, 7, 155, 60, 219, 86, 146, 189, 0, 0, 129, 0, 130, 0, 0, 127, 9, 196, 115, 193, 94, 143, 66, 61, 204, 55, 18, 60, 219, 86, 146, 189, 0, 0, 129, 0, 130, 0, 0, 127, 172, 200, 13, 186, 161, 239, 167, 60, 204, 55, 18, 60, 219, 86, 146, 189, 0, 0, 129, 0, 129, 0, 0, 127, 9, 196, 13, 186, 94, 143, 66, 61, 108, 7, 155, 60, 219, 86, 146, 189, 0, 0, 129, 0, 129, 0, 0, 127, 172, 200, 115, 193, 60, 180, 200, 60, 108, 7, 155, 60, 8, 2, 99, 190, 0, 0, 127, 0, 126, 0, 0, 127, 210, 68, 115, 193, 161, 239, 167, 60, 204, 55, 18, 60, 8, 2, 99, 190, 0, 0, 127, 0, 126, 0, 0, 127, 9, 68, 13, 186, 60, 180, 200, 60, 204, 55, 18, 60, 8, 2, 99, 190, 0, 0, 127, 0, 127, 0, 0, 127, 210, 68, 13, 186, 161, 239, 167, 60, 108, 7, 155, 60, 8, 2, 99, 190, 0, 0, 127, 0, 127, 0, 0, 127, 9, 68, 115, 193, 161, 239, 167, 60, 108, 7, 155, 60, 8, 2, 99, 190, 0, 127, 0, 0, 127, 0, 0, 127, 9, 68, 84, 209, 60, 180, 200, 60, 108, 7, 155, 60, 119, 63, 109, 190, 0, 127, 0, 0, 127, 0, 0, 127, 210, 68, 147, 209, 161, 239, 167, 60, 108, 7, 155, 60, 119, 63, 109, 190, 0, 127, 0, 0, 127, 0, 0, 127, 9, 68, 147, 209, 60, 180, 200, 60, 108, 7, 155, 60, 8, 2, 99, 190, 0, 127, 0, 0, 127, 0, 0, 127, 210, 68, 84, 209, 161, 239, 167, 60, 204, 55, 18, 60, 119, 63, 109, 190, 0, 0, 129, 0, 130, 0, 0, 127, 9, 196, 13, 186, 60, 180, 200, 60, 108, 7, 155, 60, 119, 63, 109, 190, 0, 0, 129, 0, 130, 0, 0, 127, 210, 196, 115, 193, 60, 180, 200, 60, 204, 55, 18, 60, 119, 63, 109, 190, 0, 0, 129, 0, 129, 0, 0, 127, 210, 196, 13, 186, 161, 239, 167, 60, 108, 7, 155, 60, 119, 63, 109, 190, 0, 0, 129, 0, 129, 0, 0, 127, 9, 196, 115, 193, 136, 235, 209, 61, 204, 55, 18, 60, 8, 2, 99, 190, 126, 0, 0, 0, 0, 0, 129, 127, 116, 81, 13, 186, 136, 235, 209, 61, 108, 7, 155, 60, 119, 63, 109, 190, 126, 0, 0, 0, 0, 0, 129, 127, 179, 81, 115, 193, 136, 235, 209, 61, 108, 7, 155, 60, 8, 2, 99, 190, 126, 0, 0, 0, 0, 0, 129, 127, 116, 81, 115, 193, 136, 235, 209, 61, 108, 7, 155, 60, 119, 63, 109, 190, 127, 0, 0, 0, 0, 0, 129, 127, 179, 81, 115, 193, 136, 235, 209, 61, 204, 55, 18, 60, 8, 2, 99, 190, 127, 0, 0, 0, 0, 0, 129, 127, 116, 81, 13, 186, 136, 235, 209, 61, 204, 55, 18, 60, 119, 63, 109, 190, 127, 0, 0, 0, 0, 0, 129, 127, 179, 81, 13, 186, 97, 186, 201, 61, 108, 7, 155, 60, 119, 63, 109, 190, 0, 0, 129, 0, 129, 0, 0, 127, 216, 204, 115, 193, 136, 235, 209, 61, 204, 55, 18, 60, 119, 63, 109, 190, 0, 0, 129, 0, 129, 0, 0, 127, 11, 205, 13, 186, 97, 186, 201, 61, 204, 55, 18, 60, 119, 63, 109, 190, 0, 0, 129, 0, 129, 0, 0, 127, 216, 204, 13, 186, 136, 235, 209, 61, 108, 7, 155, 60, 119, 63, 109, 190, 0, 0, 129, 0, 129, 0, 0, 127, 11, 205, 115, 193, 136, 235, 209, 61, 108, 7, 155, 60, 8, 2, 99, 190, 0, 0, 127, 0, 127, 0, 0, 127, 11, 77, 115, 193, 97, 186, 201, 61, 204, 55, 18, 60, 8, 2, 99, 190, 0, 0, 127, 0, 127, 0, 0, 127, 216, 76, 13, 186, 136, 235, 209, 61, 204, 55, 18, 60, 8, 2, 99, 190, 0, 0, 127, 0, 127, 0, 0, 127, 11, 77, 13, 186, 97, 186, 201, 61, 108, 7, 155, 60, 8, 2, 99, 190, 0, 0, 127, 0, 127, 0, 0, 127, 216, 76, 115, 193, 136, 235, 209, 61, 108, 7, 155, 60, 8, 2, 99, 190, 0, 127, 0, 0, 127, 0, 0, 127, 11, 77, 84, 209, 97, 186, 201, 61, 108, 7, 155, 60, 119, 63, 109, 190, 0, 127, 0, 0, 127, 0, 0, 127, 216, 76, 147, 209, 97, 186, 201, 61, 108, 7, 155, 60, 8, 2, 99, 190, 0, 127, 0, 0, 127, 0, 0, 127, 216, 76, 84, 209, 136, 235, 209, 61, 108, 7, 155, 60, 119, 63, 109, 190, 0, 127, 0, 0, 127, 0, 0, 127, 11, 77, 147, 209, 161, 239, 167, 60, 108, 7, 155, 60, 119, 63, 109, 190, 130, 0, 0, 0, 0, 0, 127, 127, 179, 209, 115, 193, 161, 239, 167, 60, 204, 55, 18, 60, 8, 2, 99, 190, 130, 0, 0, 0, 0, 0, 127, 127, 116, 209, 13, 186, 161, 239, 167, 60, 108, 7, 155, 60, 8, 2, 99, 190, 130, 0, 0, 0, 0, 0, 127, 127, 116, 209, 115, 193, 161, 239, 167, 60, 204, 55, 18, 60, 8, 2, 99, 190, 129, 0, 0, 0, 0, 0, 127, 127, 116, 209, 13, 186, 161, 239, 167, 60, 108, 7, 155, 60, 119, 63, 109, 190, 129, 0, 0, 0, 0, 0, 127, 127, 179, 209, 115, 193, 161, 239, 167, 60, 204, 55, 18, 60, 119, 63, 109, 190, 129, 0, 0, 0, 0, 0, 127, 127, 179, 209, 13, 186, 104, 59, 223, 61, 253, 63, 7, 36, 35, 118, 166, 165, 0, 0, 127, 0, 127, 0, 0, 127, 93, 77, 0, 60, 173, 241, 210, 61, 204, 55, 18, 60, 35, 118, 166, 165, 0, 0, 127, 0, 127, 0, 0, 127, 17, 77, 13, 186, 69, 96, 101, 60, 15, 123, 90, 37, 0, 0, 0, 128, 0, 0, 127, 0, 127, 0, 0, 127, 131, 65, 0, 60, 173, 241, 210, 61, 204, 55, 18, 60, 35, 118, 166, 165, 0, 0, 127, 0, 127, 0, 0, 127, 17, 77, 13, 186, 104, 59, 223, 61, 253, 63, 7, 36, 35, 118, 166, 165, 0, 0, 127, 0, 126, 0, 0, 127, 93, 77, 0, 60, 104, 59, 223, 61, 3, 193, 83, 60, 35, 118, 166, 165, 0, 0, 127, 0, 127, 0, 0, 127, 93, 77, 45, 190, 173, 241, 210, 61, 3, 193, 83, 60, 35, 118, 166, 165, 0, 0, 127, 0, 127, 0, 0, 127, 17, 77, 45, 190, 13, 215, 163, 60, 204, 55, 18, 60, 0, 0, 0, 128, 0, 0, 127, 0, 127, 0, 0, 127, 223, 67, 13, 186, 69, 96, 101, 60, 15, 123, 90, 37, 0, 0, 0, 128, 0, 0, 127, 0, 127, 0, 0, 127, 131, 65, 0, 60, 173, 241, 210, 61, 204, 55, 18, 60, 35, 118, 166, 165, 0, 0, 127, 0, 127, 0, 0, 127, 17, 77, 13, 186, 69, 96, 101, 60, 15, 123, 90, 37, 0, 0, 0, 128, 0, 0, 127, 0, 127, 0, 0, 127, 131, 65, 0, 60, 13, 215, 163, 60, 204, 55, 18, 60, 0, 0, 0, 128, 0, 0, 127, 0, 127, 0, 0, 127, 223, 67, 13, 186, 69, 96, 101, 60, 3, 193, 83, 60, 0, 0, 0, 128, 0, 0, 127, 0, 127, 0, 0, 127, 131, 65, 45, 190, 13, 215, 163, 60, 3, 193, 83, 60, 0, 0, 0, 128, 0, 0, 127, 0, 127, 0, 0, 127, 223, 67, 45, 190, 104, 59, 223, 61, 35, 118, 38, 36, 10, 134, 234, 188, 0, 129, 0, 0, 129, 0, 0, 127, 93, 205, 162, 196, 69, 96, 101, 60, 15, 123, 90, 37, 0, 0, 0, 128, 0, 129, 0, 0, 129, 0, 0, 127, 131, 193, 0, 60, 69, 96, 101, 60, 115, 66, 33, 37, 10, 134, 234, 188, 0, 129, 0, 0, 129, 0, 0, 127, 131, 193, 162, 196, 69, 96, 101, 60, 15, 123, 90, 37, 0, 0, 0, 128, 0, 129, 0, 0, 129, 0, 0, 127, 131, 193, 0, 60, 104, 59, 223, 61, 35, 118, 38, 36, 10, 134, 234, 188, 0, 129, 0, 0, 129, 0, 0, 127, 93, 205, 162, 196, 104, 59, 223, 61, 253, 63, 7, 36, 35, 118, 166, 165, 0, 129, 0, 0, 129, 0, 0, 127, 93, 205, 0, 60, 104, 59, 223, 61, 35, 118, 38, 36, 10, 134, 234, 188, 0, 0, 129, 0, 129, 0, 0, 127, 93, 205, 0, 60, 173, 241, 210, 61, 204, 55, 18, 60, 10, 134, 234, 188, 0, 0, 129, 0, 129, 0, 0, 127, 17, 205, 13, 186, 104, 59, 223, 61, 9, 204, 187, 60, 10, 134, 234, 188, 0, 0, 129, 0, 130, 0, 0, 127, 93, 205, 6, 195, 193, 159, 154, 61, 39, 93, 161, 59, 10, 134, 234, 188, 0, 0, 129, 0, 129, 0, 0, 127, 110, 203, 214, 39, 193, 159, 154, 61, 39, 93, 161, 59, 10, 134, 234, 188, 0, 0, 129, 0, 130, 0, 0, 127, 110, 203, 214, 39, 104, 59, 223, 61, 35, 118, 38, 36, 10, 134, 234, 188, 0, 0, 129, 0, 129, 0, 0, 127, 93, 205, 0, 60, 69, 96, 101, 60, 115, 66, 33, 37, 10, 134, 234, 188, 0, 0, 129, 0, 129, 0, 0, 127, 131, 193, 0, 60, 193, 159, 154, 61, 204, 55, 18, 60, 10, 134, 234, 188, 0, 0, 129, 0, 129, 0, 0, 127, 110, 203, 13, 186, 173, 241, 210, 61, 9, 204, 187, 60, 10, 134, 234, 188, 0, 0, 129, 0, 129, 0, 0, 127, 17, 205, 6, 195, 69, 96, 101, 60, 115, 66, 33, 37, 10, 134, 234, 188, 0, 0, 129, 0, 129, 0, 0, 127, 131, 193, 0, 60, 94, 143, 66, 61, 39, 93, 161, 59, 10, 134, 234, 188, 0, 0, 129, 0, 129, 0, 0, 127, 172, 200, 214, 39, 94, 143, 66, 61, 39, 93, 161, 59, 10, 134, 234, 188, 0, 0, 129, 0, 130, 0, 0, 127, 172, 200, 214, 39, 69, 96, 101, 60, 115, 66, 33, 37, 10, 134, 234, 188, 0, 0, 129, 0, 129, 0, 0, 127, 131, 193, 0, 60, 13, 215, 163, 60, 204, 55, 18, 60, 10, 134, 234, 188, 0, 0, 129, 0, 129, 0, 0, 127, 223, 195, 13, 186, 13, 215, 163, 60, 204, 55, 18, 60, 10, 134, 234, 188, 0, 0, 129, 0, 129, 0, 0, 127, 223, 195, 13, 186, 69, 96, 101, 60, 9, 204, 187, 60, 10, 134, 234, 188, 0, 0, 129, 0, 129, 0, 0, 127, 131, 193, 6, 195, 13, 215, 163, 60, 9, 204, 187, 60, 10, 134, 234, 188, 0, 0, 129, 0, 129, 0, 0, 127, 223, 195, 6, 195, 94, 143, 66, 61, 204, 55, 18, 60, 10, 134, 234, 188, 0, 0, 129, 0, 129, 0, 0, 127, 172, 200, 13, 186, 69, 96, 101, 60, 9, 204, 187, 60, 10, 134, 234, 188, 129, 0, 0, 0, 0, 0, 127, 127, 162, 197, 6, 195, 69, 96, 101, 60, 15, 123, 90, 37, 0, 0, 0, 128, 129, 0, 0, 0, 0, 0, 127, 127, 0, 0, 0, 60, 69, 96, 101, 60, 3, 193, 83, 60, 0, 0, 0, 128, 129, 0, 0, 0, 0, 0, 126, 127, 0, 0, 45, 190, 69, 96, 101, 60, 15, 123, 90, 37, 0, 0, 0, 128, 130, 0, 0, 0, 0, 0, 127, 127, 0, 0, 0, 60, 69, 96, 101, 60, 9, 204, 187, 60, 10, 134, 234, 188, 130, 0, 0, 0, 0, 0, 127, 127, 162, 197, 6, 195, 69, 96, 101, 60, 115, 66, 33, 37, 10, 134, 234, 188, 130, 0, 0, 0, 0, 0, 127, 127, 162, 197, 0, 60, 104, 59, 223, 61, 35, 118, 38, 36, 10, 134, 234, 188, 127, 0, 0, 0, 0, 0, 129, 127, 162, 69, 0, 60, 104, 59, 223, 61, 3, 193, 83, 60, 35, 118, 166, 165, 127, 0, 0, 0, 0, 0, 129, 127, 0, 0, 45, 190, 104, 59, 223, 61, 253, 63, 7, 36, 35, 118, 166, 165, 127, 0, 0, 0, 0, 0, 129, 127, 0, 0, 0, 60, 104, 59, 223, 61, 3, 193, 83, 60, 35, 118, 166, 165, 126, 0, 0, 0, 0, 0, 129, 127, 0, 0, 45, 190, 104, 59, 223, 61, 35, 118, 38, 36, 10, 134, 234, 188, 126, 0, 0, 0, 0, 0, 129, 127, 162, 69, 0, 60, 104, 59, 223, 61, 9, 204, 187, 60, 10, 134, 234, 188, 126, 0, 0, 0, 0, 0, 129, 127, 162, 69, 6, 195, 104, 59, 223, 61, 3, 193, 83, 60, 35, 118, 166, 165, 0, 119, 41, 0, 127, 0, 0, 127, 93, 77, 39, 49, 173, 241, 210, 61, 9, 204, 187, 60, 10, 134, 234, 188, 0, 119, 41, 0, 127, 0, 0, 127, 17, 77, 206, 197, 173, 241, 210, 61, 3, 193, 83, 60, 35, 118, 166, 165, 0, 119, 41, 0, 127, 0, 0, 127, 17, 77, 39, 49, 173, 241, 210, 61, 9, 204, 187, 60, 10, 134, 234, 188, 0, 119, 41, 0, 127, 0, 0, 127, 17, 77, 206, 197, 104, 59, 223, 61, 3, 193, 83, 60, 35, 118, 166, 165, 0, 119, 41, 0, 127, 0, 0, 127, 93, 77, 39, 49, 104, 59, 223, 61, 9, 204, 187, 60, 10, 134, 234, 188, 0, 119, 41, 0, 127, 0, 0, 127, 93, 77, 206, 197, 173, 241, 210, 61, 9, 204, 187, 60, 10, 134, 234, 188, 129, 0, 0, 0, 0, 0, 127, 127, 162, 197, 6, 195, 173, 241, 210, 61, 204, 55, 18, 60, 35, 118, 166, 165, 129, 0, 0, 0, 0, 0, 127, 127, 0, 0, 13, 186, 173, 241, 210, 61, 3, 193, 83, 60, 35, 118, 166, 165, 129, 0, 0, 0, 0, 0, 126, 127, 0, 0, 45, 190, 173, 241, 210, 61, 204, 55, 18, 60, 35, 118, 166, 165, 129, 0, 0, 0, 0, 0, 126, 127, 0, 0, 13, 186, 173, 241, 210, 61, 9, 204, 187, 60, 10, 134, 234, 188, 129, 0, 0, 0, 0, 0, 127, 127, 162, 197, 6, 195, 173, 241, 210, 61, 204, 55, 18, 60, 10, 134, 234, 188, 129, 0, 0, 0, 0, 0, 127, 127, 162, 197, 13, 186, 13, 215, 163, 60, 3, 193, 83, 60, 0, 0, 0, 128, 0, 119, 41, 0, 127, 0, 0, 127, 223, 67, 39, 49, 69, 96, 101, 60, 9, 204, 187, 60, 10, 134, 234, 188, 0, 119, 41, 0, 127, 0, 0, 127, 131, 65, 206, 197, 69, 96, 101, 60, 3, 193, 83, 60, 0, 0, 0, 128, 0, 119, 41, 0, 127, 0, 0, 127, 131, 65, 39, 49, 13, 215, 163, 60, 9, 204, 187, 60, 10, 134, 234, 188, 0, 119, 41, 0, 127, 0, 0, 127, 223, 67, 206, 197, 13, 215, 163, 60, 204, 55, 18, 60, 10, 134, 234, 188, 127, 0, 0, 0, 0, 0, 129, 127, 162, 69, 13, 186, 13, 215, 163, 60, 3, 193, 83, 60, 0, 0, 0, 128, 127, 0, 0, 0, 0, 0, 129, 127, 0, 0, 45, 190, 13, 215, 163, 60, 204, 55, 18, 60, 0, 0, 0, 128, 127, 0, 0, 0, 0, 0, 129, 127, 0, 0, 13, 186, 13, 215, 163, 60, 3, 193, 83, 60, 0, 0, 0, 128, 126, 0, 0, 0, 0, 0, 129, 127, 0, 0, 45, 190, 13, 215, 163, 60, 204, 55, 18, 60, 10, 134, 234, 188, 126, 0, 0, 0, 0, 0, 129, 127, 162, 69, 13, 186, 13, 215, 163, 60, 9, 204, 187, 60, 10, 134, 234, 188, 126, 0, 0, 0, 0, 0, 129, 127, 162, 69, 6, 195, 19, 88, 185, 61, 33, 203, 110, 61, 239, 210, 137, 190, 0, 133, 226, 0, 129, 0, 0, 127, 116, 204, 166, 210, 186, 30, 5, 61, 63, 80, 90, 61, 254, 42, 127, 190, 0, 133, 226, 0, 129, 0, 0, 127, 101, 198, 36, 210, 186, 30, 5, 61, 33, 203, 110, 61, 239, 210, 137, 190, 0, 133, 226, 0, 129, 0, 0, 127, 101, 198, 166, 210, 186, 30, 5, 61, 63, 80, 90, 61, 254, 42, 127, 190, 0, 133, 226, 0, 129, 0, 0, 127, 101, 198, 36, 210, 19, 88, 185, 61, 33, 203, 110, 61, 239, 210, 137, 190, 0, 133, 226, 0, 129, 0, 0, 127, 116, 204, 166, 210, 19, 88, 185, 61, 63, 80, 90, 61, 254, 42, 127, 190, 0, 133, 226, 0, 129, 0, 0, 127, 116, 204, 36, 210, 69, 96, 229, 61, 225, 149, 16, 61, 60, 12, 242, 189, 0, 129, 0, 0, 129, 0, 0, 127, 131, 205, 144, 205, 97, 186, 201, 61, 225, 149, 16, 61, 239, 169, 225, 189, 0, 129, 0, 0, 129, 0, 0, 127, 216, 204, 44, 205, 97, 186, 201, 61, 225, 149, 16, 61, 60, 12, 242, 189, 0, 129, 0, 0, 129, 0, 0, 127, 216, 204, 144, 205, 69, 96, 229, 61, 225, 149, 16, 61, 239, 169, 225, 189, 0, 129, 0, 0, 129, 0, 0, 127, 131, 205, 44, 205, 69, 96, 229, 61, 24, 31, 82, 61, 239, 169, 225, 189, 0, 0, 127, 0, 127, 0, 0, 127, 131, 77, 140, 200, 97, 186, 201, 61, 225, 149, 16, 61, 239, 169, 225, 189, 0, 0, 127, 0, 127, 0, 0, 127, 216, 76, 242, 197, 69, 96, 229, 61, 225, 149, 16, 61, 239, 169, 225, 189, 0, 0, 127, 0, 127, 0, 0, 127, 131, 77, 242, 197, 97, 186, 201, 61, 203, 188, 65, 61, 239, 169, 225, 189, 0, 0, 127, 0, 127, 0, 0, 127, 216, 76, 39, 200, 127, 63, 181, 61, 203, 188, 65, 61, 239, 169, 225, 189, 0, 0, 127, 0, 127, 0, 0, 127, 90, 76, 39, 200, 127, 63, 181, 61, 24, 31, 82, 61, 239, 169, 225, 189, 0, 0, 127, 0, 127, 0, 0, 127, 90, 76, 140, 200, 69, 96, 229, 61, 24, 31, 82, 61, 239, 169, 225, 189, 0, 127, 0, 0, 127, 0, 0, 127, 131, 77, 44, 205, 127, 63, 181, 61, 24, 31, 82, 61, 60, 12, 242, 189, 0, 127, 0, 0, 127, 0, 0, 127, 90, 76, 144, 205, 127, 63, 181, 61, 24, 31, 82, 61, 239, 169, 225, 189, 0, 127, 0, 0, 127, 0, 0, 127, 90, 76, 44, 205, 69, 96, 229, 61, 24, 31, 82, 61, 60, 12, 242, 189, 0, 127, 0, 0, 127, 0, 0, 127, 131, 77, 144, 205, 127, 63, 181, 61, 24, 31, 82, 61, 60, 12, 242, 189, 129, 0, 0, 0, 0, 0, 127, 127, 208, 205, 140, 200, 127, 63, 181, 61, 203, 188, 65, 61, 239, 169, 225, 189, 129, 0, 0, 0, 0, 0, 127, 127, 108, 205, 39, 200, 127, 63, 181, 61, 24, 31, 82, 61, 239, 169, 225, 189, 129, 0, 0, 0, 0, 0, 127, 127, 108, 205, 140, 200, 127, 63, 181, 61, 203, 188, 65, 61, 60, 12, 242, 189, 129, 0, 0, 0, 0, 0, 127, 127, 208, 205, 39, 200, 69, 96, 229, 61, 225, 149, 16, 61, 60, 12, 242, 189, 127, 0, 0, 0, 0, 0, 129, 127, 208, 77, 242, 197, 69, 96, 229, 61, 24, 31, 82, 61, 239, 169, 225, 189, 127, 0, 0, 0, 0, 0, 129, 127, 108, 77, 140, 200, 69, 96, 229, 61, 225, 149, 16, 61, 239, 169, 225, 189, 127, 0, 0, 0, 0, 0, 129, 127, 108, 77, 242, 197, 69, 96, 229, 61, 24, 31, 82, 61, 60, 12, 242, 189, 127, 0, 0, 0, 0, 0, 129, 127, 208, 77, 140, 200, 225, 79, 13, 61, 24, 31, 82, 61, 239, 169, 225, 189, 0, 127, 0, 0, 126, 0, 0, 127, 202, 70, 44, 205, 90, 57, 52, 60, 24, 31, 82, 61, 60, 12, 242, 189, 0, 127, 0, 0, 126, 0, 0, 127, 84, 64, 144, 205, 90, 57, 52, 60, 24, 31, 82, 61, 239, 169, 225, 189, 0, 127, 0, 0, 127, 0, 0, 127, 84, 64, 44, 205, 225, 79, 13, 61, 24, 31, 82, 61, 60, 12, 242, 189, 0, 127, 0, 0, 127, 0, 0, 127, 202, 70, 144, 205, 225, 79, 13, 61, 203, 188, 65, 61, 60, 12, 242, 189, 127, 0, 0, 0, 0, 0, 129, 127, 208, 77, 39, 200, 225, 79, 13, 61, 24, 31, 82, 61, 239, 169, 225, 189, 127, 0, 0, 0, 0, 0, 129, 127, 108, 77, 140, 200, 225, 79, 13, 61, 203, 188, 65, 61, 239, 169, 225, 189, 127, 0, 0, 0, 0, 0, 129, 127, 108, 77, 39, 200, 225, 79, 13, 61, 24, 31, 82, 61, 60, 12, 242, 189, 127, 0, 0, 0, 0, 0, 129, 127, 208, 77, 140, 200, 90, 57, 52, 60, 24, 31, 82, 61, 60, 12, 242, 189, 129, 0, 0, 0, 0, 0, 127, 127, 208, 205, 140, 200, 90, 57, 52, 60, 225, 149, 16, 61, 239, 169, 225, 189, 129, 0, 0, 0, 0, 0, 127, 127, 108, 205, 242, 197, 90, 57, 52, 60, 24, 31, 82, 61, 239, 169, 225, 189, 129, 0, 0, 0, 0, 0, 127, 127, 108, 205, 140, 200, 90, 57, 52, 60, 225, 149, 16, 61, 60, 12, 242, 189, 129, 0, 0, 0, 0, 0, 127, 127, 208, 205, 242, 197, 27, 4, 214, 61, 33, 203, 110, 61, 239, 210, 137, 190, 127, 0, 0, 0, 0, 0, 129, 127, 159, 82, 60, 201, 27, 4, 214, 61, 181, 227, 114, 61, 254, 42, 127, 190, 127, 0, 0, 0, 0, 0, 129, 127, 33, 82, 86, 201, 27, 4, 214, 61, 63, 80, 90, 61, 254, 42, 127, 190, 127, 0, 0, 0, 0, 0, 129, 127, 33, 82, 190, 200, 27, 4, 214, 61, 76, 175, 131, 61, 239, 210, 137, 190, 127, 0, 0, 0, 0, 0, 129, 127, 159, 82, 212, 201, 27, 4, 214, 61, 33, 203, 110, 61, 239, 210, 137, 190, 0, 133, 226, 0, 129, 0, 0, 127, 36, 205, 166, 210, 97, 186, 201, 61, 63, 80, 90, 61, 254, 42, 127, 190, 0, 133, 226, 0, 129, 0, 0, 127, 216, 204, 36, 210, 97, 186, 201, 61, 33, 203, 110, 61, 239, 210, 137, 190, 0, 133, 226, 0, 129, 0, 0, 127, 216, 204, 166, 210, 97, 186, 201, 61, 63, 80, 90, 61, 254, 42, 127, 190, 0, 133, 226, 0, 129, 0, 0, 127, 216, 204, 36, 210, 27, 4, 214, 61, 33, 203, 110, 61, 239, 210, 137, 190, 0, 133, 226, 0, 129, 0, 0, 127, 36, 205, 166, 210, 27, 4, 214, 61, 63, 80, 90, 61, 254, 42, 127, 190, 0, 133, 226, 0, 129, 0, 0, 127, 36, 205, 36, 210, 82, 141, 151, 60, 76, 175, 131, 61, 239, 210, 137, 190, 129, 0, 0, 0, 0, 0, 127, 127, 159, 210, 212, 201, 82, 141, 151, 60, 63, 80, 90, 61, 254, 42, 127, 190, 129, 0, 0, 0, 0, 0, 127, 127, 33, 210, 190, 200, 82, 141, 151, 60, 181, 227, 114, 61, 254, 42, 127, 190, 129, 0, 0, 0, 0, 0, 127, 127, 33, 210, 86, 201, 82, 141, 151, 60, 63, 80, 90, 61, 254, 42, 127, 190, 129, 0, 0, 0, 0, 0, 127, 127, 33, 210, 190, 200, 82, 141, 151, 60, 76, 175, 131, 61, 239, 210, 137, 190, 129, 0, 0, 0, 0, 0, 127, 127, 159, 210, 212, 201, 82, 141, 151, 60, 183, 244, 109, 61, 239, 210, 137, 190, 129, 0, 0, 0, 0, 0, 127, 127, 159, 210, 55, 201, 60, 180, 200, 60, 183, 244, 109, 61, 239, 210, 137, 190, 0, 133, 227, 0, 129, 0, 0, 127, 210, 196, 166, 210, 82, 141, 151, 60, 63, 80, 90, 61, 254, 42, 127, 190, 0, 133, 227, 0, 129, 0, 0, 127, 72, 195, 36, 210, 82, 141, 151, 60, 183, 244, 109, 61, 239, 210, 137, 190, 0, 133, 227, 0, 129, 0, 0, 127, 72, 195, 166, 210, 60, 180, 200, 60, 63, 80, 90, 61, 254, 42, 127, 190, 0, 133, 227, 0, 129, 0, 0, 127, 210, 196, 36, 210, 94, 143, 66, 61, 204, 55, 18, 60, 219, 86, 146, 189, 0, 129, 0, 0, 129, 0, 0, 127, 172, 200, 136, 202, 161, 239, 167, 60, 204, 55, 18, 60, 242, 183, 123, 189, 0, 129, 0, 0, 129, 0, 0, 127, 9, 196, 140, 201, 161, 239, 167, 60, 204, 55, 18, 60, 219, 86, 146, 189, 0, 129, 0, 0, 129, 0, 0, 127, 9, 196, 136, 202, 94, 143, 66, 61, 204, 55, 18, 60, 242, 183, 123, 189, 0, 129, 0, 0, 129, 0, 0, 127, 172, 200, 140, 201, 136, 235, 209, 61, 204, 55, 18, 60, 219, 86, 146, 189, 0, 129, 0, 0, 129, 0, 0, 127, 11, 205, 136, 202, 193, 159, 154, 61, 204, 55, 18, 60, 242, 183, 123, 189, 0, 129, 0, 0, 129, 0, 0, 127, 110, 203, 140, 201, 193, 159, 154, 61, 204, 55, 18, 60, 219, 86, 146, 189, 0, 129, 0, 0, 129, 0, 0, 127, 110, 203, 136, 202, 136, 235, 209, 61, 204, 55, 18, 60, 242, 183, 123, 189, 0, 129, 0, 0, 129, 0, 0, 127, 11, 205, 140, 201, 60, 180, 200, 60, 204, 55, 18, 60, 119, 63, 109, 190, 0, 129, 0, 0, 129, 0, 0, 127, 210, 196, 147, 209, 161, 239, 167, 60, 204, 55, 18, 60, 8, 2, 99, 190, 0, 129, 0, 0, 129, 0, 0, 127, 9, 196, 84, 209, 161, 239, 167, 60, 204, 55, 18, 60, 119, 63, 109, 190, 0, 129, 0, 0, 129, 0, 0, 127, 9, 196, 147, 209, 60, 180, 200, 60, 204, 55, 18, 60, 8, 2, 99, 190, 0, 129, 0, 0, 129, 0, 0, 127, 210, 196, 84, 209, 136, 235, 209, 61, 204, 55, 18, 60, 119, 63, 109, 190, 0, 129, 0, 0, 129, 0, 0, 127, 11, 205, 147, 209, 97, 186, 201, 61, 204, 55, 18, 60, 8, 2, 99, 190, 0, 129, 0, 0, 129, 0, 0, 127, 216, 204, 84, 209, 97, 186, 201, 61, 204, 55, 18, 60, 119, 63, 109, 190, 0, 129, 0, 0, 129, 0, 0, 127, 216, 204, 147, 209, 136, 235, 209, 61, 204, 55, 18, 60, 8, 2, 99, 190, 0, 129, 0, 0, 129, 0, 0, 127, 11, 205, 84, 209, 17, 45, 178, 61, 39, 93, 161, 59, 151, 241, 190, 189, 105, 0, 71, 0, 71, 0, 151, 127, 51, 78, 214, 39, 193, 159, 154, 61, 203, 188, 65, 61, 64, 57, 156, 189, 105, 0, 71, 0, 71, 0, 151, 127, 49, 77, 39, 200, 193, 159, 154, 61, 39, 93, 161, 59, 64, 57, 156, 189, 105, 0, 71, 0, 71, 0, 151, 127, 49, 77, 214, 39, 193, 159, 154, 61, 203, 188, 65, 61, 64, 57, 156, 189, 105, 0, 71, 0, 71, 0, 151, 127, 49, 77, 39, 200, 17, 45, 178, 61, 39, 93, 161, 59, 151, 241, 190, 189, 105, 0, 71, 0, 71, 0, 151, 127, 51, 78, 214, 39, 17, 45, 178, 61, 203, 188, 65, 61, 151, 241, 190, 189, 105, 0, 71, 0, 71, 0, 151, 127, 51, 78, 39, 200 ),
"array_index_data": PoolByteArray( 0, 0, 2, 0, 1, 0, 3, 0, 5, 0, 4, 0, 6, 0, 8, 0, 7, 0, 9, 0, 11, 0, 10, 0, 12, 0, 14, 0, 13, 0, 15, 0, 17, 0, 16, 0, 18, 0, 20, 0, 19, 0, 20, 0, 21, 0, 19, 0, 22, 0, 24, 0, 23, 0, 25, 0, 27, 0, 26, 0, 28, 0, 30, 0, 29, 0, 31, 0, 33, 0, 32, 0, 34, 0, 35, 0, 29, 0, 36, 0, 28, 0, 37, 0, 38, 0, 40, 0, 39, 0, 39, 0, 41, 0, 38, 0, 42, 0, 44, 0, 43, 0, 45, 0, 46, 0, 39, 0, 46, 0, 45, 0, 47, 0, 48, 0, 50, 0, 49, 0, 47, 0, 52, 0, 51, 0, 39, 0, 53, 0, 45, 0, 46, 0, 51, 0, 54, 0, 54, 0, 55, 0, 46, 0, 56, 0, 58, 0, 57, 0, 59, 0, 61, 0, 60, 0, 62, 0, 63, 0, 56, 0, 64, 0, 66, 0, 65, 0, 67, 0, 68, 0, 56, 0, 69, 0, 63, 0, 62, 0, 62, 0, 70, 0, 69, 0, 71, 0, 73, 0, 72, 0, 74, 0, 75, 0, 57, 0, 57, 0, 76, 0, 74, 0, 77, 0, 79, 0, 78, 0, 80, 0, 82, 0, 81, 0, 83, 0, 85, 0, 84, 0, 86, 0, 88, 0, 87, 0, 89, 0, 91, 0, 90, 0, 92, 0, 94, 0, 93, 0, 95, 0, 97, 0, 96, 0, 97, 0, 98, 0, 96, 0, 99, 0, 101, 0, 100, 0, 102, 0, 104, 0, 103, 0, 105, 0, 106, 0, 100, 0, 100, 0, 107, 0, 105, 0, 108, 0, 110, 0, 109, 0, 111, 0, 113, 0, 112, 0, 114, 0, 116, 0, 115, 0, 115, 0, 117, 0, 114, 0, 118, 0, 120, 0, 119, 0, 119, 0, 121, 0, 118, 0, 122, 0, 124, 0, 123, 0, 123, 0, 125, 0, 122, 0, 126, 0, 128, 0, 127, 0, 127, 0, 129, 0, 126, 0, 130, 0, 132, 0, 131, 0, 131, 0, 133, 0, 130, 0, 134, 0, 136, 0, 135, 0, 135, 0, 137, 0, 134, 0, 138, 0, 140, 0, 139, 0, 139, 0, 141, 0, 138, 0, 142, 0, 144, 0, 143, 0, 143, 0, 145, 0, 142, 0, 146, 0, 148, 0, 147, 0, 147, 0, 149, 0, 146, 0, 150, 0, 152, 0, 151, 0, 151, 0, 153, 0, 150, 0, 154, 0, 156, 0, 155, 0, 155, 0, 157, 0, 154, 0, 158, 0, 160, 0, 159, 0, 161, 0, 163, 0, 162, 0, 164, 0, 166, 0, 165, 0, 165, 0, 167, 0, 164, 0, 168, 0, 170, 0, 169, 0, 169, 0, 171, 0, 168, 0, 172, 0, 174, 0, 173, 0, 173, 0, 175, 0, 172, 0, 176, 0, 178, 0, 177, 0, 179, 0, 181, 0, 180, 0, 182, 0, 184, 0, 183, 0, 185, 0, 187, 0, 186, 0, 185, 0, 188, 0, 187, 0, 189, 0, 191, 0, 190, 0, 192, 0, 194, 0, 193, 0, 194, 0, 195, 0, 193, 0, 196, 0, 198, 0, 197, 0, 199, 0, 201, 0, 200, 0, 202, 0, 204, 0, 203, 0, 203, 0, 205, 0, 202, 0, 206, 0, 208, 0, 207, 0, 203, 0, 209, 0, 205, 0, 204, 0, 210, 0, 203, 0, 211, 0, 205, 0, 212, 0, 213, 0, 215, 0, 214, 0, 216, 0, 217, 0, 211, 0, 216, 0, 218, 0, 217, 0, 219, 0, 216, 0, 212, 0, 220, 0, 222, 0, 221, 0, 223, 0, 225, 0, 224, 0, 226, 0, 228, 0, 227, 0, 229, 0, 231, 0, 230, 0, 232, 0, 234, 0, 233, 0, 235, 0, 237, 0, 236, 0, 238, 0, 240, 0, 239, 0, 241, 0, 243, 0, 242, 0, 244, 0, 246, 0, 245, 0, 245, 0, 247, 0, 244, 0, 248, 0, 250, 0, 249, 0, 251, 0, 253, 0, 252, 0, 254, 0, 0, 1, 255, 0, 1, 1, 3, 1, 2, 1, 4, 1, 6, 1, 5, 1, 5, 1, 7, 1, 4, 1, 8, 1, 10, 1, 9, 1, 9, 1, 11, 1, 8, 1, 11, 1, 12, 1, 8, 1, 12, 1, 13, 1, 8, 1, 14, 1, 16, 1, 15, 1, 15, 1, 17, 1, 14, 1, 18, 1, 20, 1, 19, 1, 19, 1, 21, 1, 18, 1, 22, 1, 24, 1, 23, 1, 23, 1, 25, 1, 22, 1, 26, 1, 28, 1, 27, 1, 27, 1, 29, 1, 26, 1, 30, 1, 32, 1, 31, 1, 31, 1, 33, 1, 30, 1, 34, 1, 36, 1, 35, 1, 35, 1, 37, 1, 34, 1, 38, 1, 40, 1, 39, 1, 39, 1, 41, 1, 38, 1, 42, 1, 44, 1, 43, 1, 45, 1, 47, 1, 46, 1, 48, 1, 50, 1, 49, 1, 51, 1, 53, 1, 52, 1, 54, 1, 56, 1, 55, 1, 55, 1, 57, 1, 54, 1, 58, 1, 60, 1, 59, 1, 59, 1, 61, 1, 58, 1, 62, 1, 64, 1, 63, 1, 63, 1, 65, 1, 62, 1, 66, 1, 68, 1, 67, 1, 67, 1, 69, 1, 66, 1, 70, 1, 72, 1, 71, 1, 71, 1, 73, 1, 70, 1, 74, 1, 76, 1, 75, 1, 77, 1, 79, 1, 78, 1 ),
"blend_shape_data": [  ],
"format": 97559,
"index_count": 444,
"material": ExtResource( 3 ),
"primitive": 4,
"skeleton_aabb": [  ],
"vertex_count": 336
}
surfaces/1 = {
"aabb": AABB( 0.0065, 0.00492443, -0.269187, 0.11, 0.0601788, 0.259187 ),
"array_data": PoolByteArray( 84, 184, 158, 61, 203, 188, 65, 61, 170, 28, 22, 190, 0, 124, 232, 0, 129, 0, 0, 127, 160, 203, 226, 78, 19, 88, 185, 61, 138, 162, 223, 60, 254, 42, 127, 190, 0, 124, 232, 0, 129, 0, 0, 127, 116, 204, 3, 82, 41, 49, 136, 61, 138, 162, 223, 60, 254, 42, 127, 190, 0, 124, 232, 0, 129, 0, 0, 127, 139, 202, 3, 82, 19, 88, 185, 61, 138, 162, 223, 60, 254, 42, 127, 190, 0, 124, 232, 0, 129, 0, 0, 127, 116, 204, 3, 82, 84, 184, 158, 61, 203, 188, 65, 61, 170, 28, 22, 190, 0, 124, 232, 0, 129, 0, 0, 127, 160, 203, 226, 78, 97, 186, 201, 61, 203, 188, 65, 61, 170, 28, 22, 190, 0, 124, 232, 0, 129, 0, 0, 127, 216, 204, 226, 78, 19, 88, 185, 61, 138, 162, 223, 60, 254, 42, 127, 190, 0, 124, 232, 0, 129, 0, 0, 127, 116, 204, 3, 82, 97, 186, 201, 61, 203, 188, 65, 61, 170, 28, 22, 190, 0, 124, 232, 0, 129, 0, 0, 127, 216, 204, 226, 78, 97, 186, 201, 61, 138, 162, 223, 60, 254, 42, 127, 190, 0, 124, 232, 0, 129, 0, 0, 127, 216, 204, 3, 82, 186, 30, 5, 61, 39, 93, 161, 59, 254, 42, 127, 190, 0, 0, 130, 0, 129, 0, 0, 127, 101, 198, 214, 39, 19, 88, 185, 61, 138, 162, 223, 60, 254, 42, 127, 190, 0, 0, 130, 0, 129, 0, 0, 127, 116, 204, 95, 196, 19, 88, 185, 61, 39, 93, 161, 59, 254, 42, 127, 190, 0, 0, 130, 0, 129, 0, 0, 127, 116, 204, 214, 39, 19, 88, 185, 61, 138, 162, 223, 60, 254, 42, 127, 190, 0, 0, 129, 0, 129, 0, 0, 127, 116, 204, 95, 196, 186, 30, 5, 61, 39, 93, 161, 59, 254, 42, 127, 190, 0, 0, 129, 0, 129, 0, 0, 127, 101, 198, 214, 39, 41, 49, 136, 61, 138, 162, 223, 60, 254, 42, 127, 190, 0, 0, 129, 0, 129, 0, 0, 127, 139, 202, 95, 196, 41, 49, 136, 61, 138, 162, 223, 60, 254, 42, 127, 190, 0, 0, 129, 0, 129, 0, 0, 127, 139, 202, 95, 196, 186, 30, 5, 61, 39, 93, 161, 59, 254, 42, 127, 190, 0, 0, 129, 0, 129, 0, 0, 127, 101, 198, 214, 39, 143, 108, 103, 61, 138, 162, 223, 60, 254, 42, 127, 190, 0, 0, 129, 0, 130, 0, 0, 127, 143, 201, 95, 196, 143, 108, 103, 61, 138, 162, 223, 60, 254, 42, 127, 190, 0, 0, 129, 0, 130, 0, 0, 127, 143, 201, 95, 196, 186, 30, 5, 61, 138, 162, 223, 60, 254, 42, 127, 190, 0, 0, 129, 0, 129, 0, 0, 127, 101, 198, 95, 196, 41, 49, 136, 61, 155, 223, 28, 61, 254, 42, 127, 190, 0, 0, 129, 0, 130, 0, 0, 127, 139, 202, 138, 198, 143, 108, 103, 61, 155, 223, 28, 61, 254, 42, 127, 190, 0, 0, 129, 0, 129, 0, 0, 127, 143, 201, 138, 198, 84, 184, 158, 61, 220, 84, 133, 61, 170, 28, 22, 190, 0, 122, 224, 0, 129, 0, 0, 127, 160, 203, 107, 78, 143, 108, 103, 61, 155, 223, 28, 61, 254, 42, 127, 190, 0, 122, 224, 0, 129, 0, 0, 127, 143, 201, 209, 81, 56, 94, 58, 61, 220, 84, 133, 61, 170, 28, 22, 190, 0, 122, 224, 0, 129, 0, 0, 127, 122, 200, 107, 78, 143, 108, 103, 61, 155, 223, 28, 61, 254, 42, 127, 190, 0, 122, 224, 0, 129, 0, 0, 127, 143, 201, 209, 81, 84, 184, 158, 61, 220, 84, 133, 61, 170, 28, 22, 190, 0, 122, 224, 0, 129, 0, 0, 127, 160, 203, 107, 78, 41, 49, 136, 61, 155, 223, 28, 61, 254, 42, 127, 190, 0, 122, 224, 0, 129, 0, 0, 127, 139, 202, 209, 81, 60, 180, 200, 60, 203, 188, 65, 61, 170, 28, 22, 190, 0, 124, 232, 0, 129, 0, 0, 127, 210, 196, 226, 78, 186, 30, 5, 61, 138, 162, 223, 60, 254, 42, 127, 190, 0, 124, 232, 0, 129, 0, 0, 127, 101, 198, 3, 82, 60, 180, 200, 60, 138, 162, 223, 60, 254, 42, 127, 190, 0, 124, 232, 0, 129, 0, 0, 127, 210, 196, 3, 82, 186, 30, 5, 61, 138, 162, 223, 60, 254, 42, 127, 190, 0, 124, 232, 0, 129, 0, 0, 127, 101, 198, 3, 82, 60, 180, 200, 60, 203, 188, 65, 61, 170, 28, 22, 190, 0, 124, 232, 0, 129, 0, 0, 127, 210, 196, 226, 78, 56, 94, 58, 61, 203, 188, 65, 61, 170, 28, 22, 190, 0, 124, 232, 0, 129, 0, 0, 127, 122, 200, 226, 78, 186, 30, 5, 61, 138, 162, 223, 60, 254, 42, 127, 190, 0, 124, 232, 0, 129, 0, 0, 127, 101, 198, 3, 82, 56, 94, 58, 61, 203, 188, 65, 61, 170, 28, 22, 190, 0, 124, 232, 0, 129, 0, 0, 127, 122, 200, 226, 78, 143, 108, 103, 61, 138, 162, 223, 60, 254, 42, 127, 190, 0, 124, 232, 0, 129, 0, 0, 127, 143, 201, 3, 82, 143, 108, 103, 61, 155, 223, 28, 61, 254, 42, 127, 190, 130, 0, 243, 0, 243, 0, 126, 127, 62, 210, 138, 198, 56, 94, 58, 61, 203, 188, 65, 61, 170, 28, 22, 190, 130, 0, 243, 0, 243, 0, 126, 127, 105, 207, 39, 200, 56, 94, 58, 61, 220, 84, 133, 61, 170, 28, 22, 190, 130, 0, 243, 0, 243, 0, 126, 127, 105, 207, 232, 201, 56, 94, 58, 61, 203, 188, 65, 61, 170, 28, 22, 190, 130, 0, 243, 0, 243, 0, 126, 127, 105, 207, 39, 200, 143, 108, 103, 61, 155, 223, 28, 61, 254, 42, 127, 190, 130, 0, 243, 0, 243, 0, 126, 127, 62, 210, 138, 198, 143, 108, 103, 61, 138, 162, 223, 60, 254, 42, 127, 190, 130, 0, 243, 0, 243, 0, 126, 127, 62, 210, 95, 196, 84, 184, 158, 61, 203, 188, 65, 61, 170, 28, 22, 190, 126, 0, 243, 0, 243, 0, 130, 127, 196, 78, 39, 200, 41, 49, 136, 61, 155, 223, 28, 61, 254, 42, 127, 190, 126, 0, 243, 0, 243, 0, 130, 127, 236, 81, 138, 198, 84, 184, 158, 61, 220, 84, 133, 61, 170, 28, 22, 190, 126, 0, 243, 0, 243, 0, 130, 127, 196, 78, 232, 201, 41, 49, 136, 61, 155, 223, 28, 61, 254, 42, 127, 190, 126, 0, 243, 0, 243, 0, 130, 127, 236, 81, 138, 198, 84, 184, 158, 61, 203, 188, 65, 61, 170, 28, 22, 190, 126, 0, 243, 0, 243, 0, 130, 127, 196, 78, 39, 200, 41, 49, 136, 61, 138, 162, 223, 60, 254, 42, 127, 190, 126, 0, 243, 0, 243, 0, 130, 127, 236, 81, 95, 196, 145, 151, 238, 61, 39, 93, 161, 59, 52, 180, 64, 190, 127, 0, 0, 0, 0, 0, 129, 127, 161, 80, 214, 39, 145, 151, 238, 61, 247, 115, 130, 60, 239, 169, 225, 189, 127, 0, 0, 0, 0, 0, 129, 127, 108, 77, 68, 192, 145, 151, 238, 61, 39, 93, 161, 59, 239, 169, 225, 189, 127, 0, 0, 0, 0, 0, 129, 127, 108, 77, 214, 39, 145, 151, 238, 61, 247, 115, 130, 60, 52, 180, 64, 190, 127, 0, 0, 0, 0, 0, 129, 127, 161, 80, 68, 192, 97, 186, 201, 61, 39, 93, 161, 59, 52, 180, 64, 190, 0, 0, 129, 0, 130, 0, 0, 127, 216, 204, 214, 39, 145, 151, 238, 61, 247, 115, 130, 60, 52, 180, 64, 190, 0, 0, 129, 0, 129, 0, 0, 127, 187, 205, 68, 192, 145, 151, 238, 61, 39, 93, 161, 59, 52, 180, 64, 190, 0, 0, 129, 0, 129, 0, 0, 127, 187, 205, 214, 39, 97, 186, 201, 61, 86, 46, 204, 60, 52, 180, 64, 190, 0, 0, 129, 0, 129, 0, 0, 127, 216, 204, 208, 195, 248, 40, 220, 61, 86, 46, 204, 60, 52, 180, 64, 190, 0, 0, 129, 0, 129, 0, 0, 127, 74, 205, 208, 195, 248, 40, 220, 61, 86, 46, 204, 60, 239, 169, 225, 189, 0, 127, 0, 0, 127, 0, 0, 127, 74, 77, 44, 205, 97, 186, 201, 61, 86, 46, 204, 60, 52, 180, 64, 190, 0, 127, 0, 0, 127, 0, 0, 127, 216, 76, 129, 208, 97, 186, 201, 61, 86, 46, 204, 60, 239, 169, 225, 189, 0, 127, 0, 0, 127, 0, 0, 127, 216, 76, 44, 205, 248, 40, 220, 61, 86, 46, 204, 60, 52, 180, 64, 190, 0, 127, 0, 0, 127, 0, 0, 127, 74, 77, 129, 208, 247, 253, 212, 59, 247, 115, 130, 60, 52, 180, 64, 190, 129, 0, 0, 0, 0, 0, 127, 127, 161, 208, 68, 192, 247, 253, 212, 59, 39, 93, 161, 59, 239, 169, 225, 189, 129, 0, 0, 0, 0, 0, 127, 127, 108, 205, 214, 39, 247, 253, 212, 59, 247, 115, 130, 60, 239, 169, 225, 189, 129, 0, 0, 0, 0, 0, 127, 127, 108, 205, 68, 192, 247, 253, 212, 59, 39, 93, 161, 59, 52, 180, 64, 190, 129, 0, 0, 0, 0, 0, 127, 127, 161, 208, 214, 39, 247, 253, 212, 59, 39, 93, 161, 59, 52, 180, 64, 190, 0, 0, 129, 0, 130, 0, 0, 127, 30, 189, 214, 39, 60, 180, 200, 60, 86, 46, 204, 60, 52, 180, 64, 190, 0, 0, 129, 0, 129, 0, 0, 127, 210, 196, 208, 195, 60, 180, 200, 60, 39, 93, 161, 59, 52, 180, 64, 190, 0, 0, 129, 0, 129, 0, 0, 127, 210, 196, 214, 39, 247, 253, 212, 59, 247, 115, 130, 60, 52, 180, 64, 190, 0, 0, 129, 0, 129, 0, 0, 127, 30, 189, 68, 192, 186, 243, 125, 60, 86, 46, 204, 60, 52, 180, 64, 190, 0, 0, 129, 0, 129, 0, 0, 127, 26, 194, 208, 195, 145, 151, 238, 61, 247, 115, 130, 60, 239, 169, 225, 189, 0, 0, 127, 0, 127, 0, 0, 127, 187, 77, 68, 192, 97, 186, 201, 61, 39, 93, 161, 59, 239, 169, 225, 189, 0, 0, 127, 0, 126, 0, 0, 127, 216, 76, 214, 39, 145, 151, 238, 61, 39, 93, 161, 59, 239, 169, 225, 189, 0, 0, 127, 0, 127, 0, 0, 127, 187, 77, 214, 39, 97, 186, 201, 61, 86, 46, 204, 60, 239, 169, 225, 189, 0, 0, 127, 0, 127, 0, 0, 127, 216, 76, 208, 195, 97, 186, 201, 61, 86, 46, 204, 60, 239, 169, 225, 189, 0, 0, 127, 0, 127, 0, 0, 127, 216, 76, 208, 195, 145, 151, 238, 61, 247, 115, 130, 60, 239, 169, 225, 189, 0, 0, 127, 0, 127, 0, 0, 127, 187, 77, 68, 192, 248, 40, 220, 61, 86, 46, 204, 60, 239, 169, 225, 189, 0, 0, 127, 0, 127, 0, 0, 127, 74, 77, 208, 195, 145, 151, 238, 61, 247, 115, 130, 60, 52, 180, 64, 190, 89, 89, 0, 0, 0, 0, 129, 127, 161, 80, 127, 75, 248, 40, 220, 61, 86, 46, 204, 60, 239, 169, 225, 189, 89, 89, 0, 0, 0, 0, 129, 127, 108, 77, 63, 74, 145, 151, 238, 61, 247, 115, 130, 60, 239, 169, 225, 189, 89, 89, 0, 0, 0, 0, 129, 127, 108, 77, 127, 75, 248, 40, 220, 61, 86, 46, 204, 60, 239, 169, 225, 189, 89, 89, 0, 0, 0, 0, 129, 127, 108, 77, 63, 74, 145, 151, 238, 61, 247, 115, 130, 60, 52, 180, 64, 190, 89, 89, 0, 0, 0, 0, 129, 127, 161, 80, 127, 75, 248, 40, 220, 61, 86, 46, 204, 60, 52, 180, 64, 190, 89, 89, 0, 0, 0, 0, 129, 127, 161, 80, 63, 74, 190, 116, 19, 61, 203, 188, 65, 61, 151, 241, 190, 189, 0, 127, 0, 0, 127, 0, 0, 127, 22, 71, 86, 204, 225, 79, 13, 61, 203, 188, 65, 61, 239, 169, 225, 189, 0, 127, 0, 0, 127, 0, 0, 127, 202, 70, 44, 205, 60, 180, 200, 60, 203, 188, 65, 61, 239, 169, 225, 189, 0, 127, 0, 0, 127, 0, 0, 127, 210, 68, 44, 205, 225, 79, 13, 61, 203, 188, 65, 61, 60, 12, 242, 189, 0, 127, 0, 0, 127, 0, 0, 127, 202, 70, 144, 205, 56, 94, 58, 61, 203, 188, 65, 61, 170, 28, 22, 190, 0, 127, 0, 0, 127, 0, 0, 127, 122, 72, 246, 206, 225, 79, 13, 61, 203, 188, 65, 61, 60, 12, 242, 189, 0, 127, 0, 0, 126, 0, 0, 127, 202, 70, 144, 205, 190, 116, 19, 61, 203, 188, 65, 61, 151, 241, 190, 189, 0, 127, 0, 0, 127, 0, 0, 127, 22, 71, 86, 204, 60, 180, 200, 60, 203, 188, 65, 61, 170, 28, 22, 190, 0, 127, 0, 0, 127, 0, 0, 127, 210, 68, 246, 206, 56, 94, 58, 61, 203, 188, 65, 61, 170, 28, 22, 190, 0, 127, 0, 0, 127, 0, 0, 127, 122, 72, 246, 206, 60, 180, 200, 60, 203, 188, 65, 61, 60, 12, 242, 189, 0, 127, 0, 0, 127, 0, 0, 127, 210, 68, 144, 205, 94, 143, 66, 61, 203, 188, 65, 61, 64, 57, 156, 189, 0, 127, 0, 0, 127, 0, 0, 127, 172, 72, 2, 203, 56, 94, 58, 61, 203, 188, 65, 61, 170, 28, 22, 190, 0, 127, 0, 0, 127, 0, 0, 127, 122, 72, 246, 206, 94, 143, 66, 61, 203, 188, 65, 61, 64, 57, 156, 189, 0, 127, 0, 0, 127, 0, 0, 127, 172, 72, 2, 203, 134, 192, 74, 61, 203, 188, 65, 61, 239, 169, 225, 189, 0, 127, 0, 0, 126, 0, 0, 127, 223, 72, 44, 205, 134, 192, 74, 61, 203, 188, 65, 61, 239, 169, 225, 189, 0, 126, 0, 0, 126, 0, 0, 127, 223, 72, 44, 205, 94, 143, 66, 61, 203, 188, 65, 61, 64, 57, 156, 189, 0, 126, 0, 0, 127, 0, 0, 127, 172, 72, 2, 203, 193, 159, 154, 61, 203, 188, 65, 61, 64, 57, 156, 189, 0, 126, 0, 0, 127, 0, 0, 127, 110, 75, 2, 203, 134, 192, 74, 61, 203, 188, 65, 61, 239, 169, 225, 189, 0, 127, 0, 0, 126, 0, 0, 127, 223, 72, 44, 205, 193, 159, 154, 61, 203, 188, 65, 61, 64, 57, 156, 189, 0, 127, 0, 0, 127, 0, 0, 127, 110, 75, 2, 203, 46, 135, 150, 61, 203, 188, 65, 61, 239, 169, 225, 189, 0, 127, 0, 0, 127, 0, 0, 127, 59, 75, 44, 205, 46, 135, 150, 61, 203, 188, 65, 61, 239, 169, 225, 189, 0, 127, 0, 0, 127, 0, 0, 127, 59, 75, 44, 205, 193, 159, 154, 61, 203, 188, 65, 61, 64, 57, 156, 189, 0, 127, 0, 0, 127, 0, 0, 127, 110, 75, 2, 203, 84, 184, 158, 61, 203, 188, 65, 61, 170, 28, 22, 190, 0, 127, 0, 0, 127, 0, 0, 127, 160, 75, 246, 206, 84, 184, 158, 61, 203, 188, 65, 61, 170, 28, 22, 190, 0, 127, 0, 0, 127, 0, 0, 127, 160, 75, 246, 206, 17, 45, 178, 61, 203, 188, 65, 61, 151, 241, 190, 189, 0, 127, 0, 0, 127, 0, 0, 127, 72, 76, 86, 204, 84, 184, 158, 61, 203, 188, 65, 61, 170, 28, 22, 190, 0, 126, 0, 0, 127, 0, 0, 127, 160, 75, 246, 206, 17, 45, 178, 61, 203, 188, 65, 61, 151, 241, 190, 189, 0, 126, 0, 0, 127, 0, 0, 127, 72, 76, 86, 204, 127, 63, 181, 61, 203, 188, 65, 61, 60, 12, 242, 189, 0, 126, 0, 0, 127, 0, 0, 127, 90, 76, 144, 205, 127, 63, 181, 61, 203, 188, 65, 61, 60, 12, 242, 189, 0, 127, 0, 0, 127, 0, 0, 127, 90, 76, 144, 205, 97, 186, 201, 61, 203, 188, 65, 61, 170, 28, 22, 190, 0, 127, 0, 0, 126, 0, 0, 127, 216, 76, 246, 206, 127, 63, 181, 61, 203, 188, 65, 61, 239, 169, 225, 189, 0, 127, 0, 0, 127, 0, 0, 127, 90, 76, 44, 205, 97, 186, 201, 61, 203, 188, 65, 61, 239, 169, 225, 189, 0, 127, 0, 0, 127, 0, 0, 127, 216, 76, 44, 205, 97, 186, 201, 61, 203, 188, 65, 61, 60, 12, 242, 189, 0, 127, 0, 0, 127, 0, 0, 127, 216, 76, 144, 205, 193, 159, 154, 61, 39, 93, 161, 59, 64, 57, 156, 189, 127, 0, 0, 0, 0, 0, 129, 127, 130, 75, 214, 39, 193, 159, 154, 61, 204, 55, 18, 60, 10, 134, 234, 188, 127, 0, 0, 0, 0, 0, 130, 127, 162, 69, 13, 186, 193, 159, 154, 61, 39, 93, 161, 59, 10, 134, 234, 188, 127, 0, 0, 0, 0, 0, 129, 127, 162, 69, 214, 39, 193, 159, 154, 61, 204, 55, 18, 60, 242, 183, 123, 189, 127, 0, 0, 0, 0, 0, 129, 127, 12, 74, 13, 186, 193, 159, 154, 61, 204, 55, 18, 60, 219, 86, 146, 189, 127, 0, 0, 0, 0, 0, 129, 127, 8, 75, 13, 186, 193, 159, 154, 61, 108, 7, 155, 60, 219, 86, 146, 189, 127, 0, 0, 0, 0, 0, 129, 127, 8, 75, 115, 193, 193, 159, 154, 61, 108, 7, 155, 60, 242, 183, 123, 189, 127, 0, 0, 0, 0, 0, 130, 127, 12, 74, 115, 193, 193, 159, 154, 61, 203, 188, 65, 61, 64, 57, 156, 189, 127, 0, 0, 0, 0, 0, 129, 127, 130, 75, 39, 200, 193, 159, 154, 61, 204, 55, 18, 60, 10, 134, 234, 188, 127, 0, 0, 0, 0, 0, 129, 127, 162, 69, 13, 186, 193, 159, 154, 61, 108, 7, 155, 60, 242, 183, 123, 189, 127, 0, 0, 0, 0, 0, 129, 127, 12, 74, 115, 193, 193, 159, 154, 61, 203, 188, 65, 61, 64, 57, 156, 189, 127, 0, 0, 0, 0, 0, 129, 127, 130, 75, 39, 200, 193, 159, 154, 61, 203, 188, 65, 61, 64, 57, 156, 189, 127, 0, 0, 0, 0, 0, 130, 127, 130, 75, 39, 200, 193, 159, 154, 61, 108, 7, 155, 60, 219, 86, 146, 189, 127, 0, 0, 0, 0, 0, 129, 127, 8, 75, 115, 193, 193, 159, 154, 61, 39, 93, 161, 59, 64, 57, 156, 189, 127, 0, 0, 0, 0, 0, 129, 127, 130, 75, 214, 39, 193, 159, 154, 61, 204, 55, 18, 60, 13, 215, 35, 188, 127, 0, 0, 0, 0, 0, 129, 127, 223, 63, 13, 186, 97, 186, 201, 61, 39, 93, 161, 59, 239, 169, 225, 189, 105, 0, 71, 0, 71, 0, 151, 127, 53, 79, 214, 39, 97, 186, 201, 61, 225, 149, 16, 61, 239, 169, 225, 189, 105, 0, 71, 0, 71, 0, 151, 127, 53, 79, 242, 197, 17, 45, 178, 61, 39, 93, 161, 59, 151, 241, 190, 189, 105, 0, 71, 0, 71, 0, 151, 127, 51, 78, 214, 39, 97, 186, 201, 61, 225, 149, 16, 61, 239, 169, 225, 189, 0, 0, 0, 0, 127, 0, 0, 127, 53, 79, 242, 197, 97, 186, 201, 61, 39, 93, 161, 59, 239, 169, 225, 189, 0, 0, 0, 0, 127, 0, 0, 127, 53, 79, 214, 39, 97, 186, 201, 61, 86, 46, 204, 60, 239, 169, 225, 189, 0, 0, 0, 0, 127, 0, 0, 127, 53, 79, 208, 195, 97, 186, 201, 61, 203, 188, 65, 61, 239, 169, 225, 189, 105, 0, 71, 0, 71, 0, 151, 127, 53, 79, 39, 200, 17, 45, 178, 61, 39, 93, 161, 59, 151, 241, 190, 189, 105, 0, 71, 0, 71, 0, 151, 127, 51, 78, 214, 39, 97, 186, 201, 61, 225, 149, 16, 61, 239, 169, 225, 189, 105, 0, 71, 0, 71, 0, 151, 127, 53, 79, 242, 197, 17, 45, 178, 61, 39, 93, 161, 59, 151, 241, 190, 189, 105, 0, 71, 0, 71, 0, 151, 127, 51, 78, 214, 39, 97, 186, 201, 61, 203, 188, 65, 61, 239, 169, 225, 189, 105, 0, 71, 0, 71, 0, 151, 127, 53, 79, 39, 200, 17, 45, 178, 61, 203, 188, 65, 61, 151, 241, 190, 189, 105, 0, 71, 0, 71, 0, 151, 127, 51, 78, 39, 200, 60, 180, 200, 60, 39, 93, 161, 59, 52, 180, 64, 190, 0, 129, 0, 0, 129, 0, 0, 127, 210, 196, 129, 208, 247, 253, 212, 59, 39, 93, 161, 59, 239, 169, 225, 189, 0, 129, 0, 0, 129, 0, 0, 127, 30, 189, 44, 205, 247, 253, 212, 59, 39, 93, 161, 59, 52, 180, 64, 190, 0, 129, 0, 0, 129, 0, 0, 127, 30, 189, 129, 208, 60, 180, 200, 60, 39, 93, 161, 59, 239, 169, 225, 189, 0, 129, 0, 0, 129, 0, 0, 127, 210, 196, 44, 205, 186, 30, 5, 61, 39, 93, 161, 59, 239, 210, 137, 190, 0, 129, 0, 0, 129, 0, 0, 127, 101, 198, 127, 210, 60, 180, 200, 60, 39, 93, 161, 59, 254, 42, 127, 190, 0, 129, 0, 0, 129, 0, 0, 127, 210, 196, 1, 210, 186, 30, 5, 61, 39, 93, 161, 59, 239, 210, 137, 190, 0, 129, 0, 0, 129, 0, 0, 127, 101, 198, 127, 210, 60, 180, 200, 60, 39, 93, 161, 59, 52, 180, 64, 190, 0, 129, 0, 0, 129, 0, 0, 127, 210, 196, 129, 208, 60, 180, 200, 60, 39, 93, 161, 59, 254, 42, 127, 190, 0, 129, 0, 0, 129, 0, 0, 127, 210, 196, 1, 210, 60, 180, 200, 60, 39, 93, 161, 59, 239, 210, 137, 190, 0, 129, 0, 0, 129, 0, 0, 127, 210, 196, 127, 210, 60, 180, 200, 60, 39, 93, 161, 59, 239, 169, 225, 189, 0, 129, 0, 0, 129, 0, 0, 127, 210, 196, 44, 205, 186, 30, 5, 61, 39, 93, 161, 59, 239, 210, 137, 190, 0, 129, 0, 0, 130, 0, 0, 127, 101, 198, 127, 210, 186, 30, 5, 61, 39, 93, 161, 59, 254, 42, 127, 190, 0, 129, 0, 0, 129, 0, 0, 127, 101, 198, 1, 210, 186, 30, 5, 61, 39, 93, 161, 59, 254, 42, 127, 190, 0, 129, 0, 0, 129, 0, 0, 127, 101, 198, 1, 210, 190, 116, 19, 61, 39, 93, 161, 59, 151, 241, 190, 189, 0, 129, 0, 0, 130, 0, 0, 127, 22, 199, 86, 204, 19, 88, 185, 61, 39, 93, 161, 59, 254, 42, 127, 190, 0, 129, 0, 0, 129, 0, 0, 127, 116, 204, 1, 210, 190, 116, 19, 61, 39, 93, 161, 59, 151, 241, 190, 189, 0, 129, 0, 0, 129, 0, 0, 127, 22, 199, 86, 204, 19, 88, 185, 61, 39, 93, 161, 59, 254, 42, 127, 190, 0, 129, 0, 0, 130, 0, 0, 127, 116, 204, 1, 210, 94, 143, 66, 61, 39, 93, 161, 59, 64, 57, 156, 189, 0, 129, 0, 0, 129, 0, 0, 127, 172, 200, 2, 203, 94, 143, 66, 61, 39, 93, 161, 59, 64, 57, 156, 189, 0, 129, 0, 0, 129, 0, 0, 127, 172, 200, 2, 203, 94, 143, 66, 61, 39, 93, 161, 59, 10, 134, 234, 188, 0, 129, 0, 0, 129, 0, 0, 127, 172, 200, 162, 196, 193, 159, 154, 61, 39, 93, 161, 59, 64, 57, 156, 189, 0, 129, 0, 0, 129, 0, 0, 127, 110, 203, 2, 203, 193, 159, 154, 61, 39, 93, 161, 59, 64, 57, 156, 189, 0, 129, 0, 0, 129, 0, 0, 127, 110, 203, 2, 203, 19, 88, 185, 61, 39, 93, 161, 59, 254, 42, 127, 190, 0, 129, 0, 0, 129, 0, 0, 127, 116, 204, 1, 210, 17, 45, 178, 61, 39, 93, 161, 59, 151, 241, 190, 189, 0, 129, 0, 0, 129, 0, 0, 127, 72, 204, 86, 204, 17, 45, 178, 61, 39, 93, 161, 59, 151, 241, 190, 189, 0, 129, 0, 0, 129, 0, 0, 127, 72, 204, 86, 204, 97, 186, 201, 61, 39, 93, 161, 59, 239, 169, 225, 189, 0, 129, 0, 0, 129, 0, 0, 127, 216, 204, 44, 205, 97, 186, 201, 61, 39, 93, 161, 59, 239, 169, 225, 189, 0, 129, 0, 0, 129, 0, 0, 127, 216, 204, 44, 205, 19, 88, 185, 61, 39, 93, 161, 59, 254, 42, 127, 190, 0, 129, 0, 0, 130, 0, 0, 127, 116, 204, 1, 210, 97, 186, 201, 61, 39, 93, 161, 59, 239, 210, 137, 190, 0, 129, 0, 0, 129, 0, 0, 127, 216, 204, 127, 210, 97, 186, 201, 61, 39, 93, 161, 59, 239, 210, 137, 190, 0, 129, 0, 0, 129, 0, 0, 127, 216, 204, 127, 210, 19, 88, 185, 61, 39, 93, 161, 59, 239, 210, 137, 190, 0, 129, 0, 0, 129, 0, 0, 127, 116, 204, 127, 210, 97, 186, 201, 61, 39, 93, 161, 59, 239, 169, 225, 189, 130, 0, 0, 0, 127, 0, 0, 127, 216, 204, 44, 205, 97, 186, 201, 61, 39, 93, 161, 59, 239, 210, 137, 190, 0, 127, 0, 0, 127, 0, 0, 127, 216, 204, 127, 210, 97, 186, 201, 61, 39, 93, 161, 59, 254, 42, 127, 190, 0, 127, 0, 0, 127, 0, 0, 127, 216, 204, 1, 210, 97, 186, 201, 61, 39, 93, 161, 59, 52, 180, 64, 190, 0, 127, 0, 0, 127, 0, 0, 127, 216, 204, 129, 208, 97, 186, 201, 61, 39, 93, 161, 59, 52, 180, 64, 190, 0, 129, 0, 0, 129, 0, 0, 127, 216, 204, 129, 208, 145, 151, 238, 61, 39, 93, 161, 59, 52, 180, 64, 190, 0, 129, 0, 0, 129, 0, 0, 127, 187, 205, 129, 208, 145, 151, 238, 61, 39, 93, 161, 59, 239, 169, 225, 189, 0, 129, 0, 0, 129, 0, 0, 127, 187, 205, 44, 205, 193, 159, 154, 61, 39, 93, 161, 59, 10, 134, 234, 188, 0, 129, 0, 0, 129, 0, 0, 127, 110, 203, 162, 196, 60, 180, 200, 60, 225, 149, 16, 61, 60, 12, 242, 189, 129, 0, 0, 0, 0, 0, 127, 127, 208, 205, 242, 197, 60, 180, 200, 60, 86, 46, 204, 60, 239, 169, 225, 189, 129, 0, 0, 0, 0, 0, 126, 127, 108, 205, 208, 195, 60, 180, 200, 60, 225, 149, 16, 61, 239, 169, 225, 189, 129, 0, 0, 0, 0, 0, 127, 127, 108, 205, 242, 197, 60, 180, 200, 60, 86, 46, 204, 60, 52, 180, 64, 190, 129, 0, 0, 0, 0, 0, 127, 127, 161, 208, 208, 195, 60, 180, 200, 60, 203, 188, 65, 61, 170, 28, 22, 190, 129, 0, 0, 0, 0, 0, 127, 127, 54, 207, 39, 200, 60, 180, 200, 60, 138, 162, 223, 60, 254, 42, 127, 190, 129, 0, 0, 0, 0, 0, 127, 127, 33, 210, 95, 196, 60, 180, 200, 60, 86, 46, 204, 60, 52, 180, 64, 190, 130, 0, 0, 0, 0, 0, 126, 127, 161, 208, 208, 195, 60, 180, 200, 60, 138, 162, 223, 60, 254, 42, 127, 190, 130, 0, 0, 0, 0, 0, 127, 127, 33, 210, 95, 196, 60, 180, 200, 60, 108, 7, 155, 60, 8, 2, 99, 190, 130, 0, 0, 0, 0, 0, 127, 127, 116, 209, 115, 193, 60, 180, 200, 60, 86, 46, 204, 60, 52, 180, 64, 190, 129, 0, 0, 0, 0, 0, 126, 127, 161, 208, 208, 195, 60, 180, 200, 60, 108, 7, 155, 60, 8, 2, 99, 190, 129, 0, 0, 0, 0, 0, 127, 127, 116, 209, 115, 193, 60, 180, 200, 60, 39, 93, 161, 59, 52, 180, 64, 190, 129, 0, 0, 0, 0, 0, 127, 127, 161, 208, 214, 39, 60, 180, 200, 60, 108, 7, 155, 60, 8, 2, 99, 190, 129, 0, 0, 0, 0, 0, 127, 127, 116, 209, 115, 193, 60, 180, 200, 60, 108, 7, 155, 60, 119, 63, 109, 190, 129, 0, 0, 0, 0, 0, 127, 127, 179, 209, 115, 193, 60, 180, 200, 60, 204, 55, 18, 60, 119, 63, 109, 190, 129, 0, 0, 0, 0, 0, 127, 127, 179, 209, 13, 186, 60, 180, 200, 60, 204, 55, 18, 60, 8, 2, 99, 190, 129, 0, 0, 0, 0, 0, 127, 127, 116, 209, 13, 186, 60, 180, 200, 60, 39, 93, 161, 59, 52, 180, 64, 190, 129, 0, 0, 0, 0, 0, 127, 127, 161, 208, 214, 39, 60, 180, 200, 60, 39, 93, 161, 59, 254, 42, 127, 190, 129, 0, 0, 0, 0, 0, 127, 127, 33, 210, 214, 39, 60, 180, 200, 60, 203, 188, 65, 61, 60, 12, 242, 189, 129, 0, 0, 0, 0, 0, 127, 127, 208, 205, 39, 200, 97, 186, 201, 61, 39, 93, 161, 59, 52, 180, 64, 190, 127, 0, 0, 0, 0, 0, 129, 127, 161, 80, 214, 39, 97, 186, 201, 61, 204, 55, 18, 60, 8, 2, 99, 190, 127, 0, 0, 0, 0, 0, 129, 127, 116, 81, 13, 186, 97, 186, 201, 61, 86, 46, 204, 60, 52, 180, 64, 190, 127, 0, 0, 0, 0, 0, 129, 127, 161, 80, 208, 195, 97, 186, 201, 61, 39, 93, 161, 59, 254, 42, 127, 190, 127, 0, 0, 0, 0, 0, 130, 127, 33, 82, 214, 39, 97, 186, 201, 61, 108, 7, 155, 60, 8, 2, 99, 190, 127, 0, 0, 0, 0, 0, 130, 127, 116, 81, 115, 193, 97, 186, 201, 61, 204, 55, 18, 60, 119, 63, 109, 190, 127, 0, 0, 0, 0, 0, 129, 127, 179, 81, 13, 186, 97, 186, 201, 61, 204, 55, 18, 60, 119, 63, 109, 190, 127, 0, 0, 0, 0, 0, 129, 127, 179, 81, 13, 186, 97, 186, 201, 61, 39, 93, 161, 59, 254, 42, 127, 190, 127, 0, 0, 0, 0, 0, 129, 127, 33, 82, 214, 39, 97, 186, 201, 61, 108, 7, 155, 60, 119, 63, 109, 190, 127, 0, 0, 0, 0, 0, 130, 127, 179, 81, 115, 193, 97, 186, 201, 61, 138, 162, 223, 60, 254, 42, 127, 190, 126, 0, 0, 0, 0, 0, 129, 127, 33, 82, 95, 196, 97, 186, 201, 61, 86, 46, 204, 60, 52, 180, 64, 190, 126, 0, 0, 0, 0, 0, 130, 127, 161, 80, 208, 195, 97, 186, 201, 61, 108, 7, 155, 60, 8, 2, 99, 190, 126, 0, 0, 0, 0, 0, 129, 127, 116, 81, 115, 193, 97, 186, 201, 61, 138, 162, 223, 60, 254, 42, 127, 190, 127, 0, 0, 0, 0, 0, 129, 127, 33, 82, 95, 196, 97, 186, 201, 61, 108, 7, 155, 60, 119, 63, 109, 190, 127, 0, 0, 0, 0, 0, 130, 127, 179, 81, 115, 193, 97, 186, 201, 61, 203, 188, 65, 61, 170, 28, 22, 190, 127, 0, 0, 0, 0, 0, 129, 127, 54, 79, 39, 200, 97, 186, 201, 61, 86, 46, 204, 60, 52, 180, 64, 190, 127, 0, 0, 0, 0, 0, 129, 127, 161, 80, 208, 195, 97, 186, 201, 61, 138, 162, 223, 60, 254, 42, 127, 190, 127, 0, 0, 0, 0, 0, 129, 127, 33, 82, 95, 196, 97, 186, 201, 61, 203, 188, 65, 61, 60, 12, 242, 189, 127, 0, 0, 0, 0, 0, 130, 127, 208, 77, 39, 200, 97, 186, 201, 61, 203, 188, 65, 61, 170, 28, 22, 190, 127, 0, 0, 0, 0, 0, 130, 127, 54, 79, 39, 200, 97, 186, 201, 61, 225, 149, 16, 61, 60, 12, 242, 189, 127, 0, 0, 0, 0, 0, 129, 127, 208, 77, 242, 197, 97, 186, 201, 61, 86, 46, 204, 60, 239, 169, 225, 189, 127, 0, 0, 0, 0, 0, 130, 127, 108, 77, 208, 195, 97, 186, 201, 61, 225, 149, 16, 61, 239, 169, 225, 189, 127, 0, 0, 0, 0, 0, 129, 127, 108, 77, 242, 197, 94, 143, 66, 61, 203, 188, 65, 61, 64, 57, 156, 189, 129, 0, 0, 0, 0, 0, 127, 127, 130, 203, 39, 200, 94, 143, 66, 61, 204, 55, 18, 60, 10, 134, 234, 188, 129, 0, 0, 0, 0, 0, 127, 127, 162, 197, 13, 186, 94, 143, 66, 61, 204, 55, 18, 60, 13, 215, 35, 188, 129, 0, 0, 0, 0, 0, 127, 127, 223, 191, 13, 186, 94, 143, 66, 61, 39, 93, 161, 59, 10, 134, 234, 188, 129, 0, 0, 0, 0, 0, 127, 127, 162, 197, 214, 39, 94, 143, 66, 61, 39, 93, 161, 59, 10, 134, 234, 188, 129, 0, 0, 0, 0, 0, 127, 127, 162, 197, 214, 39, 94, 143, 66, 61, 203, 188, 65, 61, 64, 57, 156, 189, 129, 0, 0, 0, 0, 0, 127, 127, 130, 203, 39, 200, 94, 143, 66, 61, 108, 7, 155, 60, 242, 183, 123, 189, 129, 0, 0, 0, 0, 0, 127, 127, 12, 202, 115, 193, 94, 143, 66, 61, 108, 7, 155, 60, 242, 183, 123, 189, 129, 0, 0, 0, 0, 0, 126, 127, 12, 202, 115, 193, 94, 143, 66, 61, 108, 7, 155, 60, 219, 86, 146, 189, 129, 0, 0, 0, 0, 0, 127, 127, 8, 203, 115, 193, 94, 143, 66, 61, 204, 55, 18, 60, 219, 86, 146, 189, 129, 0, 0, 0, 0, 0, 127, 127, 8, 203, 13, 186, 94, 143, 66, 61, 204, 55, 18, 60, 242, 183, 123, 189, 130, 0, 0, 0, 0, 0, 127, 127, 12, 202, 13, 186, 94, 143, 66, 61, 39, 93, 161, 59, 10, 134, 234, 188, 130, 0, 0, 0, 0, 0, 127, 127, 162, 197, 214, 39, 94, 143, 66, 61, 108, 7, 155, 60, 242, 183, 123, 189, 130, 0, 0, 0, 0, 0, 127, 127, 12, 202, 115, 193, 94, 143, 66, 61, 204, 55, 18, 60, 242, 183, 123, 189, 129, 0, 0, 0, 0, 0, 127, 127, 12, 202, 13, 186, 94, 143, 66, 61, 39, 93, 161, 59, 64, 57, 156, 189, 129, 0, 0, 0, 0, 0, 127, 127, 130, 203, 214, 39, 94, 143, 66, 61, 39, 93, 161, 59, 64, 57, 156, 189, 129, 0, 0, 0, 0, 0, 126, 127, 130, 203, 214, 39, 94, 143, 66, 61, 204, 55, 18, 60, 219, 86, 146, 189, 129, 0, 0, 0, 0, 0, 127, 127, 8, 203, 13, 186, 94, 143, 66, 61, 203, 188, 65, 61, 64, 57, 156, 189, 129, 0, 0, 0, 0, 0, 127, 127, 130, 203, 39, 200, 193, 159, 154, 61, 204, 55, 18, 60, 13, 215, 35, 188, 0, 109, 63, 0, 127, 0, 0, 127, 110, 75, 85, 190, 94, 143, 66, 61, 203, 188, 65, 61, 64, 57, 156, 189, 0, 109, 63, 0, 127, 0, 0, 127, 172, 72, 42, 204, 94, 143, 66, 61, 204, 55, 18, 60, 13, 215, 35, 188, 0, 109, 63, 0, 127, 0, 0, 127, 172, 72, 85, 190, 94, 143, 66, 61, 203, 188, 65, 61, 64, 57, 156, 189, 0, 109, 63, 0, 127, 0, 0, 127, 172, 72, 42, 204, 193, 159, 154, 61, 204, 55, 18, 60, 13, 215, 35, 188, 0, 109, 63, 0, 127, 0, 0, 127, 110, 75, 85, 190, 193, 159, 154, 61, 203, 188, 65, 61, 64, 57, 156, 189, 0, 109, 63, 0, 127, 0, 0, 127, 110, 75, 42, 204, 60, 180, 200, 60, 247, 115, 130, 60, 239, 169, 225, 189, 0, 0, 127, 0, 127, 0, 0, 127, 210, 68, 68, 192, 247, 253, 212, 59, 39, 93, 161, 59, 239, 169, 225, 189, 0, 0, 127, 0, 127, 0, 0, 127, 30, 61, 214, 39, 60, 180, 200, 60, 39, 93, 161, 59, 239, 169, 225, 189, 0, 0, 127, 0, 127, 0, 0, 127, 210, 68, 214, 39, 247, 253, 212, 59, 247, 115, 130, 60, 239, 169, 225, 189, 0, 0, 127, 0, 127, 0, 0, 127, 30, 61, 68, 192, 60, 180, 200, 60, 86, 46, 204, 60, 239, 169, 225, 189, 0, 0, 127, 0, 126, 0, 0, 127, 210, 68, 208, 195, 186, 243, 125, 60, 86, 46, 204, 60, 239, 169, 225, 189, 0, 0, 127, 0, 127, 0, 0, 127, 26, 66, 208, 195, 60, 180, 200, 60, 86, 46, 204, 60, 239, 169, 225, 189, 0, 127, 0, 0, 127, 0, 0, 127, 210, 68, 44, 205, 186, 243, 125, 60, 86, 46, 204, 60, 52, 180, 64, 190, 0, 127, 0, 0, 127, 0, 0, 127, 26, 66, 129, 208, 186, 243, 125, 60, 86, 46, 204, 60, 239, 169, 225, 189, 0, 127, 0, 0, 127, 0, 0, 127, 26, 66, 44, 205, 60, 180, 200, 60, 86, 46, 204, 60, 52, 180, 64, 190, 0, 127, 0, 0, 127, 0, 0, 127, 210, 68, 129, 208, 186, 243, 125, 60, 86, 46, 204, 60, 239, 169, 225, 189, 167, 89, 0, 0, 0, 0, 127, 127, 108, 205, 160, 196, 247, 253, 212, 59, 247, 115, 130, 60, 52, 180, 64, 190, 167, 89, 0, 0, 0, 0, 127, 127, 161, 208, 62, 192, 247, 253, 212, 59, 247, 115, 130, 60, 239, 169, 225, 189, 167, 89, 0, 0, 0, 0, 127, 127, 108, 205, 62, 192, 247, 253, 212, 59, 247, 115, 130, 60, 52, 180, 64, 190, 167, 89, 0, 0, 0, 0, 127, 127, 161, 208, 62, 192, 186, 243, 125, 60, 86, 46, 204, 60, 239, 169, 225, 189, 167, 89, 0, 0, 0, 0, 127, 127, 108, 205, 160, 196, 186, 243, 125, 60, 86, 46, 204, 60, 52, 180, 64, 190, 167, 89, 0, 0, 0, 0, 127, 127, 161, 208, 160, 196, 60, 180, 200, 60, 203, 188, 65, 61, 239, 169, 225, 189, 151, 0, 71, 0, 71, 0, 105, 127, 159, 203, 39, 200, 190, 116, 19, 61, 39, 93, 161, 59, 151, 241, 190, 189, 151, 0, 71, 0, 71, 0, 105, 127, 154, 201, 214, 39, 190, 116, 19, 61, 203, 188, 65, 61, 151, 241, 190, 189, 151, 0, 71, 0, 71, 0, 105, 127, 154, 201, 39, 200, 190, 116, 19, 61, 39, 93, 161, 59, 151, 241, 190, 189, 151, 0, 71, 0, 71, 0, 105, 127, 154, 201, 214, 39, 60, 180, 200, 60, 203, 188, 65, 61, 239, 169, 225, 189, 151, 0, 71, 0, 71, 0, 105, 127, 159, 203, 39, 200, 60, 180, 200, 60, 39, 93, 161, 59, 239, 169, 225, 189, 151, 0, 71, 0, 71, 0, 105, 127, 159, 203, 214, 39, 60, 180, 200, 60, 39, 93, 161, 59, 239, 169, 225, 189, 0, 89, 167, 0, 127, 0, 0, 127, 159, 203, 214, 39, 60, 180, 200, 60, 203, 188, 65, 61, 239, 169, 225, 189, 151, 0, 71, 0, 127, 0, 0, 129, 159, 203, 39, 200, 60, 180, 200, 60, 225, 149, 16, 61, 239, 169, 225, 189, 151, 0, 71, 0, 127, 0, 0, 129, 159, 203, 242, 197, 60, 180, 200, 60, 86, 46, 204, 60, 239, 169, 225, 189, 151, 0, 71, 0, 127, 0, 0, 129, 159, 203, 208, 195, 60, 180, 200, 60, 247, 115, 130, 60, 239, 169, 225, 189, 0, 0, 0, 0, 127, 0, 0, 127, 159, 203, 68, 192 ),
"array_index_data": PoolByteArray( 0, 0, 2, 0, 1, 0, 3, 0, 5, 0, 4, 0, 6, 0, 8, 0, 7, 0, 9, 0, 11, 0, 10, 0, 12, 0, 14, 0, 13, 0, 15, 0, 17, 0, 16, 0, 18, 0, 19, 0, 13, 0, 18, 0, 14, 0, 20, 0, 20, 0, 21, 0, 18, 0, 22, 0, 24, 0, 23, 0, 25, 0, 27, 0, 26, 0, 28, 0, 30, 0, 29, 0, 31, 0, 33, 0, 32, 0, 34, 0, 36, 0, 35, 0, 37, 0, 39, 0, 38, 0, 40, 0, 42, 0, 41, 0, 43, 0, 45, 0, 44, 0, 46, 0, 48, 0, 47, 0, 49, 0, 51, 0, 50, 0, 50, 0, 52, 0, 49, 0, 53, 0, 55, 0, 54, 0, 54, 0, 56, 0, 53, 0, 54, 0, 57, 0, 56, 0, 58, 0, 60, 0, 59, 0, 59, 0, 61, 0, 58, 0, 62, 0, 64, 0, 63, 0, 63, 0, 65, 0, 62, 0, 66, 0, 68, 0, 67, 0, 67, 0, 69, 0, 66, 0, 67, 0, 70, 0, 69, 0, 71, 0, 73, 0, 72, 0, 72, 0, 74, 0, 71, 0, 75, 0, 77, 0, 76, 0, 78, 0, 80, 0, 79, 0, 81, 0, 83, 0, 82, 0, 84, 0, 86, 0, 85, 0, 85, 0, 87, 0, 84, 0, 88, 0, 90, 0, 89, 0, 91, 0, 92, 0, 87, 0, 87, 0, 93, 0, 91, 0, 92, 0, 94, 0, 84, 0, 95, 0, 97, 0, 96, 0, 98, 0, 100, 0, 99, 0, 101, 0, 103, 0, 102, 0, 104, 0, 106, 0, 105, 0, 107, 0, 108, 0, 102, 0, 109, 0, 111, 0, 110, 0, 107, 0, 113, 0, 112, 0, 112, 0, 114, 0, 108, 0, 115, 0, 108, 0, 114, 0, 113, 0, 116, 0, 112, 0, 117, 0, 119, 0, 118, 0, 118, 0, 120, 0, 117, 0, 120, 0, 121, 0, 117, 0, 121, 0, 122, 0, 117, 0, 123, 0, 120, 0, 118, 0, 124, 0, 126, 0, 125, 0, 127, 0, 122, 0, 123, 0, 128, 0, 130, 0, 129, 0, 118, 0, 131, 0, 127, 0, 132, 0, 134, 0, 133, 0, 135, 0, 137, 0, 136, 0, 138, 0, 140, 0, 139, 0, 141, 0, 143, 0, 142, 0, 144, 0, 146, 0, 145, 0, 145, 0, 147, 0, 144, 0, 144, 0, 147, 0, 148, 0, 149, 0, 151, 0, 150, 0, 148, 0, 153, 0, 152, 0, 154, 0, 156, 0, 155, 0, 147, 0, 158, 0, 157, 0, 158, 0, 159, 0, 157, 0, 160, 0, 162, 0, 161, 0, 163, 0, 164, 0, 159, 0, 164, 0, 165, 0, 159, 0, 166, 0, 168, 0, 167, 0, 169, 0, 170, 0, 159, 0, 171, 0, 173, 0, 172, 0, 174, 0, 175, 0, 159, 0, 176, 0, 178, 0, 177, 0, 176, 0, 179, 0, 178, 0, 170, 0, 181, 0, 180, 0, 170, 0, 182, 0, 181, 0, 183, 0, 165, 0, 164, 0, 184, 0, 186, 0, 185, 0, 185, 0, 187, 0, 184, 0, 187, 0, 188, 0, 184, 0, 187, 0, 189, 0, 188, 0, 190, 0, 192, 0, 191, 0, 193, 0, 195, 0, 194, 0, 196, 0, 197, 0, 189, 0, 197, 0, 198, 0, 189, 0, 199, 0, 196, 0, 200, 0, 200, 0, 201, 0, 199, 0, 201, 0, 198, 0, 199, 0, 201, 0, 189, 0, 198, 0, 188, 0, 202, 0, 184, 0, 203, 0, 205, 0, 204, 0, 204, 0, 206, 0, 203, 0, 205, 0, 207, 0, 204, 0, 204, 0, 208, 0, 206, 0, 209, 0, 211, 0, 210, 0, 212, 0, 214, 0, 213, 0, 215, 0, 216, 0, 207, 0, 215, 0, 206, 0, 216, 0, 217, 0, 219, 0, 218, 0, 220, 0, 221, 0, 205, 0, 222, 0, 220, 0, 205, 0, 222, 0, 205, 0, 223, 0, 223, 0, 224, 0, 222, 0, 225, 0, 227, 0, 226, 0, 226, 0, 228, 0, 225, 0, 229, 0, 231, 0, 230, 0, 232, 0, 233, 0, 225, 0, 233, 0, 234, 0, 225, 0, 235, 0, 237, 0, 236, 0, 228, 0, 239, 0, 238, 0, 239, 0, 234, 0, 238, 0, 240, 0, 242, 0, 241, 0, 243, 0, 245, 0, 244, 0, 246, 0, 248, 0, 247, 0, 249, 0, 251, 0, 250, 0, 250, 0, 252, 0, 249, 0, 253, 0, 249, 0, 252, 0, 252, 0, 254, 0, 253, 0, 255, 0, 1, 1, 0, 1, 0, 1, 2, 1, 255, 0, 3, 1, 5, 1, 4, 1, 6, 1, 8, 1, 7, 1, 9, 1, 11, 1, 10, 1, 12, 1, 14, 1, 13, 1, 15, 1, 17, 1, 16, 1, 15, 1, 18, 1, 17, 1, 15, 1, 19, 1, 18, 1 ),
"blend_shape_data": [  ],
"format": 97559,
"index_count": 402,
"material": ExtResource( 4 ),
"primitive": 4,
"skeleton_aabb": [  ],
"vertex_count": 276
}
surfaces/2 = {
"aabb": AABB( 0.011, 0.0352992, -0.146594, 0.101, 0.0298041, 0.0364063 ),
"array_data": PoolByteArray( 84, 184, 158, 61, 203, 188, 65, 61, 170, 28, 22, 190, 126, 0, 13, 0, 13, 0, 130, 127, 150, 79, 39, 200, 84, 184, 158, 61, 220, 84, 133, 61, 170, 28, 22, 190, 126, 0, 13, 0, 13, 0, 130, 127, 150, 79, 232, 201, 46, 135, 150, 61, 203, 188, 65, 61, 239, 169, 225, 189, 126, 0, 13, 0, 13, 0, 130, 127, 201, 77, 39, 200, 56, 94, 58, 61, 203, 188, 65, 61, 170, 28, 22, 190, 130, 0, 13, 0, 13, 0, 126, 127, 237, 206, 39, 200, 134, 192, 74, 61, 203, 188, 65, 61, 239, 169, 225, 189, 130, 0, 13, 0, 13, 0, 126, 127, 31, 205, 39, 200, 56, 94, 58, 61, 220, 84, 133, 61, 170, 28, 22, 190, 130, 0, 13, 0, 13, 0, 126, 127, 237, 206, 232, 201, 134, 192, 74, 61, 203, 188, 65, 61, 239, 169, 225, 189, 0, 114, 55, 0, 126, 0, 0, 127, 223, 72, 164, 205, 84, 184, 158, 61, 220, 84, 133, 61, 170, 28, 22, 190, 0, 114, 55, 0, 127, 0, 0, 127, 160, 75, 163, 207, 56, 94, 58, 61, 220, 84, 133, 61, 170, 28, 22, 190, 0, 114, 55, 0, 127, 0, 0, 127, 122, 72, 163, 207, 84, 184, 158, 61, 220, 84, 133, 61, 170, 28, 22, 190, 0, 114, 55, 0, 127, 0, 0, 127, 160, 75, 163, 207, 134, 192, 74, 61, 203, 188, 65, 61, 239, 169, 225, 189, 0, 114, 55, 0, 127, 0, 0, 127, 223, 72, 164, 205, 46, 135, 150, 61, 203, 188, 65, 61, 239, 169, 225, 189, 0, 114, 55, 0, 127, 0, 0, 127, 59, 75, 164, 205, 90, 57, 52, 60, 24, 31, 82, 61, 60, 12, 242, 189, 0, 0, 129, 0, 129, 0, 0, 127, 84, 192, 140, 200, 60, 180, 200, 60, 225, 149, 16, 61, 60, 12, 242, 189, 0, 0, 129, 0, 130, 0, 0, 127, 210, 196, 242, 197, 90, 57, 52, 60, 225, 149, 16, 61, 60, 12, 242, 189, 0, 0, 129, 0, 129, 0, 0, 127, 84, 192, 242, 197, 60, 180, 200, 60, 203, 188, 65, 61, 60, 12, 242, 189, 0, 0, 129, 0, 129, 0, 0, 127, 210, 196, 39, 200, 225, 79, 13, 61, 203, 188, 65, 61, 60, 12, 242, 189, 0, 0, 129, 0, 129, 0, 0, 127, 202, 198, 39, 200, 225, 79, 13, 61, 24, 31, 82, 61, 60, 12, 242, 189, 0, 0, 129, 0, 129, 0, 0, 127, 202, 198, 140, 200, 127, 63, 181, 61, 24, 31, 82, 61, 60, 12, 242, 189, 0, 0, 129, 0, 129, 0, 0, 127, 90, 204, 140, 200, 97, 186, 201, 61, 203, 188, 65, 61, 60, 12, 242, 189, 0, 0, 129, 0, 129, 0, 0, 127, 216, 204, 39, 200, 127, 63, 181, 61, 203, 188, 65, 61, 60, 12, 242, 189, 0, 0, 129, 0, 129, 0, 0, 127, 90, 204, 39, 200, 69, 96, 229, 61, 24, 31, 82, 61, 60, 12, 242, 189, 0, 0, 129, 0, 129, 0, 0, 127, 131, 205, 140, 200, 69, 96, 229, 61, 225, 149, 16, 61, 60, 12, 242, 189, 0, 0, 129, 0, 130, 0, 0, 127, 131, 205, 242, 197, 97, 186, 201, 61, 225, 149, 16, 61, 60, 12, 242, 189, 0, 0, 129, 0, 129, 0, 0, 127, 216, 204, 242, 197 ),
"array_index_data": PoolByteArray( 0, 0, 2, 0, 1, 0, 3, 0, 5, 0, 4, 0, 6, 0, 8, 0, 7, 0, 9, 0, 11, 0, 10, 0, 12, 0, 14, 0, 13, 0, 13, 0, 15, 0, 12, 0, 15, 0, 16, 0, 12, 0, 16, 0, 17, 0, 12, 0, 18, 0, 20, 0, 19, 0, 21, 0, 18, 0, 19, 0, 22, 0, 21, 0, 19, 0, 19, 0, 23, 0, 22, 0 ),
"blend_shape_data": [  ],
"format": 97559,
"index_count": 36,
"material": ExtResource( 2 ),
"primitive": 4,
"skeleton_aabb": [  ],
"vertex_count": 24
}

[node name="RaceCarBlack" instance=ExtResource( 1 )]

[node name="Body" parent="." index="0"]
mesh = SubResource( 1 )
