# Created by Kenney (www.kenney.nl)

newmtl Hidden
Kd 0.973 0.945 0.914

newmtl Grass
Kd 0.069 0.569 0.227

newmtl Asphault
Kd 0.262 0.262 0.262

newmtl Raceline_White
Kd 0.941 0.941 0.941

newmtl Dirt
Kd 0.726 0.671 0.541

newmtl Cement
Kd 0.659 0.635 0.584

newmtl Black
Kd 0 0 0

newmtl Raceline_Red
Kd 0.792 0.118 0.118

newmtl Water
Kd 0.204 0.647 0.812

